<?xml version="1.0" standalone="no"?>
<!DOCTYPE svg PUBLIC "-//W3C//DTD SVG 1.1//EN" "http://www.w3.org/Graphics/SVG/1.1/DTD/svg11.dtd" >
<svg xmlns="http://www.w3.org/2000/svg" xmlns:xlink="http://www.w3.org/1999/xlink" version="1.1">
<metadata></metadata>
<defs>
<font id="proxima_nova_rgregular" horiz-adv-x="230" >
<font-face units-per-em="1000" ascent="790" descent="-210" />
<missing-glyph horiz-adv-x="258" />
<glyph horiz-adv-x="0" />
<glyph horiz-adv-x="0" />
<glyph horiz-adv-x="333" />
<glyph unicode="&#xd;" horiz-adv-x="0" />
<glyph unicode=" "  horiz-adv-x="258" />
<glyph unicode="&#x09;" horiz-adv-x="258" />
<glyph unicode="&#xa0;" horiz-adv-x="258" />
<glyph unicode="!" d="M146 187h-62l-16 480h94zM115 -10q-22 0 -38.5 16.5t-16.5 38.5q0 23 16 39t39 16t39 -16t16 -39q0 -22 -16.5 -38.5t-38.5 -16.5z" />
<glyph unicode="&#x22;" horiz-adv-x="343" d="M118 412h-37q-27 205 -27 219q0 19 13 32.5t32 13.5t32.5 -13.5t13.5 -32.5zM263 412h-37q-27 205 -27 219q0 19 13.5 32.5t32.5 13.5t32 -13.5t13 -32.5z" />
<glyph unicode="#" horiz-adv-x="590" d="M300 0h-61l61 181h-111l-60 -181h-62l61 181h-106l17 53h107l66 199h-108l16 52h110l60 182h62l-60 -182h110l60 182h61l-61 -182h107l-15 -52h-109l-67 -199h111l-16 -53h-113zM317 234l66 199h-110l-66 -199h110z" />
<glyph unicode="$" horiz-adv-x="593" d="M271 -100v89q-144 8 -229 105l49 63q73 -82 180 -94v244q-38 10 -61.5 18t-54.5 23.5t-49 33.5t-30.5 46t-12.5 64q0 77 58 128t150 56v92h61v-93q121 -12 197 -91l-50 -61q-59 63 -147 76v-217q47 -13 78 -25.5t65.5 -35t51.5 -57t17 -80.5q0 -76 -52 -131.5t-160 -63.5 v-89h-61zM458 177q0 45 -32.5 70t-93.5 43v-227q65 7 95.5 40t30.5 74zM149 497q0 -38 31 -59.5t91 -39.5v204q-54 -4 -88 -32.5t-34 -72.5z" />
<glyph unicode="%" horiz-adv-x="731" d="M191 348q-71 0 -115.5 46.5t-44.5 116.5q0 71 45 118.5t115 47.5q71 0 116.5 -47.5t45.5 -118.5q0 -70 -45.5 -116.5t-116.5 -46.5zM182 0h-54l426 667h55zM539 -12q-71 0 -115.5 46.5t-44.5 116.5q0 71 45 118.5t115 47.5q71 0 116 -47.5t45 -118.5q0 -70 -45 -116.5 t-116 -46.5zM191 398q44 0 73 32.5t29 80.5q0 50 -28.5 82.5t-73.5 32.5q-44 0 -72 -32.5t-28 -82.5q0 -48 28 -80.5t72 -32.5zM539 38q44 0 73 32.5t29 80.5q0 50 -28.5 82.5t-73.5 32.5t-73 -32.5t-28 -82.5q0 -48 28.5 -80.5t72.5 -32.5z" />
<glyph unicode="&#x26;" horiz-adv-x="641" d="M613 0h-104q-30 26 -73 70q-82 -82 -192 -82q-91 0 -149.5 48.5t-58.5 137.5q0 71 39 116t108 82q-51 87 -51 150q0 66 48.5 110.5t119.5 44.5q67 0 109 -34.5t42 -96.5q0 -36 -13 -64.5t-42 -52t-50.5 -36.5t-64.5 -35q32 -44 77 -95q36 -43 79 -89q44 65 72 152l65 -28 q-49 -114 -91 -172q50 -52 130 -126zM251 50q74 0 140 66q-66 69 -92 101q-46 53 -84 106q-47 -29 -72.5 -62.5t-25.5 -81.5q0 -60 39.5 -94.5t94.5 -34.5zM210 521q0 -47 40 -115q65 32 98.5 62t33.5 75q0 36 -22 55.5t-57 19.5q-39 0 -66 -27.5t-27 -69.5z" />
<glyph unicode="'" horiz-adv-x="199" d="M118 412h-37q-27 205 -27 219q0 19 13 32.5t32 13.5t32.5 -13.5t13.5 -32.5z" />
<glyph unicode="(" horiz-adv-x="248" d="M230 -164l-45 -35q-141 193 -141 442q0 248 141 442l45 -34q-53 -105 -78.5 -198t-25.5 -210t25.5 -210.5t78.5 -196.5z" />
<glyph unicode=")" horiz-adv-x="248" d="M62 -199l-45 35q53 103 79 196.5t26 210.5q0 118 -26 211t-79 197l45 34q142 -193 142 -442q0 -250 -142 -442z" />
<glyph unicode="*" horiz-adv-x="340" d="M193 389h-46l5 115l-96 -63l-22 40l102 52l-102 52l22 39l96 -62l-5 115h46l-6 -115l96 62l23 -39l-102 -52l102 -52l-23 -40l-96 63z" />
<glyph unicode="+" horiz-adv-x="499" d="M470 311h-192v-213h-57v213h-192v52h192v207h57v-207h192v-52z" />
<glyph unicode="," d="M176 24q0 -44 -23 -84.5t-59 -66.5l-37 31q25 16 43.5 42.5t21.5 50.5q-4 -2 -14 -2q-21 0 -34.5 14.5t-13.5 36.5t15.5 38t37.5 16q26 0 44.5 -20.5t18.5 -55.5z" />
<glyph unicode="-" horiz-adv-x="300" d="M270 209h-240v66h240v-66z" />
<glyph unicode="." d="M115 -10q-23 0 -39 16t-16 39t16 39t39 16t39 -16t16 -39t-16 -39t-39 -16z" />
<glyph unicode="/" horiz-adv-x="296" d="M59 -20h-59l237 707h59z" />
<glyph unicode="0" horiz-adv-x="612" d="M306 -12q-66 0 -116.5 30.5t-80 81.5t-44 110t-14.5 123t14.5 123t44 109.5t80 81t116.5 30.5q65 0 116 -30.5t80.5 -81t44 -109.5t14.5 -123t-14.5 -123t-44 -110t-80.5 -81.5t-116 -30.5zM306 62q60 0 100 41.5t55 99.5t15 130t-15 130t-55 99t-100 41t-100 -41 t-55 -99t-15 -130t15 -130t55 -99.5t100 -41.5z" />
<glyph unicode="1" horiz-adv-x="339" d="M261 0h-83v557l-107 -113l-50 51l167 172h73v-667z" />
<glyph unicode="2" horiz-adv-x="588" d="M512 0h-458v66q104 82 161.5 130.5t111 103t75.5 97t22 84.5q0 60 -41 91t-98 31q-115 0 -181 -84l-51 53q38 50 99.5 77.5t132.5 27.5q91 0 157.5 -51t66.5 -145q0 -93 -80 -185.5t-244 -221.5h327v-74z" />
<glyph unicode="3" horiz-adv-x="557" d="M266 -12q-80 0 -142 31t-95 79l49 52q30 -40 79 -64t107 -24q73 0 114.5 33.5t41.5 91.5q0 60 -44.5 89t-121.5 29q-59 0 -69 -1v76q11 -1 69 -1q68 0 111.5 27.5t43.5 82.5q0 53 -42.5 83.5t-106.5 30.5q-101 0 -176 -81l-46 52q85 103 228 103q99 0 162.5 -47.5 t63.5 -130.5q0 -66 -44 -105.5t-100 -49.5q55 -5 104.5 -48t49.5 -116q0 -85 -64 -138.5t-172 -53.5z" />
<glyph unicode="4" horiz-adv-x="558" d="M432 0h-83v169h-317v69l286 429h114v-425h94v-73h-94v-169zM349 242v348l-234 -348h234z" />
<glyph unicode="5" horiz-adv-x="590" d="M301 -12q-154 0 -235 107l51 55q69 -88 184 -88q68 0 111 41t43 102q0 65 -42.5 104.5t-110.5 39.5q-90 0 -154 -63l-61 21v360h408v-74h-325v-232q60 60 156 60q88 0 150 -57.5t62 -155.5q0 -100 -67 -160t-170 -60z" />
<glyph unicode="6" horiz-adv-x="591" d="M308 -12q-67 0 -118 28t-80.5 76.5t-44 109t-14.5 130.5q0 94 28 170t90.5 125.5t152.5 49.5q115 0 185 -80l-42 -62q-58 68 -143 68q-62 0 -105.5 -39t-63 -96.5t-19.5 -126.5q0 -17 1 -26q25 40 77.5 72t111.5 32q95 0 156.5 -55.5t61.5 -157.5q0 -91 -64 -154.5 t-170 -63.5zM305 62q72 0 112.5 43.5t40.5 97.5q0 70 -43 107t-111 37q-49 0 -94 -27.5t-73 -72.5q7 -74 48 -129.5t120 -55.5z" />
<glyph unicode="7" horiz-adv-x="515" d="M213 0h-92l269 593h-359v74h455v-57z" />
<glyph unicode="8" horiz-adv-x="581" d="M291 -12q-102 0 -170.5 49t-68.5 132q0 63 45.5 109t113.5 66q-64 18 -106 58.5t-42 101.5q0 84 68 128.5t160 44.5t160.5 -44.5t68.5 -128.5q0 -61 -42 -101.5t-107 -58.5q68 -20 113.5 -66t45.5 -109q0 -82 -68.5 -131.5t-170.5 -49.5zM291 378q20 3 40.5 10t46.5 19.5 t42 35t16 50.5q0 50 -41.5 80t-103.5 30q-63 0 -104 -30t-41 -80q0 -28 16 -50.5t42 -35t46.5 -19t40.5 -10.5zM291 62q64 0 109.5 32t45.5 84q0 40 -31.5 70.5t-64 43t-59.5 15.5q-27 -3 -59.5 -15.5t-64.5 -43t-32 -70.5q0 -52 45.5 -84t110.5 -32z" />
<glyph unicode="9" horiz-adv-x="591" d="M269 -11q-115 0 -185 80l42 62q58 -68 143 -68q64 0 108 40t62 97t18 124q0 18 -1 27q-25 -40 -77 -72t-111 -32q-95 0 -157 55.5t-62 157.5q0 90 64 154t169 64q68 0 119 -28t80.5 -77t44 -109t14.5 -131q0 -94 -28 -169.5t-90.5 -125t-152.5 -49.5zM287 319 q49 0 94.5 27t71.5 72q-6 74 -47 130t-120 56q-71 0 -112 -44t-41 -97q0 -70 43 -107t111 -37z" />
<glyph unicode=":" d="M115 380q-23 0 -39 16t-16 39t16 39t39 16t39 -16t16 -39t-16 -39t-39 -16zM115 -10q-23 0 -39 16t-16 39t16 39t39 16t39 -16t16 -39t-16 -39t-39 -16z" />
<glyph unicode=";" d="M115 380q-22 0 -38.5 16.5t-16.5 38.5q0 23 16 39t39 16t39 -16t16 -39q0 -22 -16.5 -38.5t-38.5 -16.5zM176 26q0 -45 -23 -85.5t-59 -65.5l-37 30q24 16 43 43t22 51q-6 -3 -14 -3q-21 0 -34.5 14.5t-13.5 36.5q0 23 15.5 39t37.5 16q26 0 44.5 -20.5t18.5 -55.5z" />
<glyph unicode="&#x3c;" horiz-adv-x="499" d="M470 90l-441 218v53l441 219v-63l-377 -183l377 -182v-62z" />
<glyph unicode="=" horiz-adv-x="499" d="M470 404h-441v53h441v-53zM470 211h-441v52h441v-52z" />
<glyph unicode="&#x3e;" horiz-adv-x="499" d="M470 308l-441 -218v62l376 182l-376 183v63l441 -219v-53z" />
<glyph unicode="?" horiz-adv-x="462" d="M203 185q-39 33 -39 81q0 30 13.5 55t33.5 41t43.5 33.5t43.5 32.5t33.5 36t13.5 46q0 40 -30.5 66.5t-87.5 26.5q-97 0 -159 -82l-50 54q79 102 217 102q89 0 142.5 -44.5t53.5 -110.5q0 -51 -30.5 -90.5t-66.5 -60.5t-66.5 -50t-30.5 -61q0 -28 27 -49zM224 -10 q-22 0 -38.5 16t-16.5 39t16.5 39t38.5 16t38.5 -16t16.5 -39t-16.5 -39t-38.5 -16z" />
<glyph unicode="@" horiz-adv-x="783" d="M352 -70q-136 0 -226.5 90.5t-90.5 223.5q0 160 119.5 277t277.5 117q139 0 227 -91.5t88 -225.5q0 -111 -52 -173.5t-121 -62.5q-40 0 -64.5 23.5t-26.5 57.5l-1 6q-27 -38 -69.5 -62.5t-88.5 -24.5q-69 0 -111 45t-42 118q0 102 72 176.5t163 74.5q46 0 79.5 -22 t48.5 -56l13 62h68l-57 -271q-2 -12 -2 -21q0 -25 13.5 -38.5t33.5 -13.5q38 0 73 45t35 137q0 124 -78.5 203.5t-204.5 79.5q-144 0 -251.5 -108.5t-107.5 -249.5q0 -121 81.5 -202t205.5 -81q97 0 186 56l18 -26q-98 -63 -208 -63zM344 141q87 0 149 90l29 138 q-10 29 -36.5 51.5t-66.5 22.5q-73 0 -125 -58.5t-52 -132.5q0 -49 27.5 -80t74.5 -31z" />
<glyph unicode="A" horiz-adv-x="658" d="M649 0h-95l-59 148h-332l-59 -148h-95l268 667h103zM470 222l-141 359l-142 -359h283z" />
<glyph unicode="B" horiz-adv-x="629" d="M382 0h-304v667h297q86 0 136.5 -47t50.5 -123q0 -60 -34 -101.5t-83 -51.5q53 -8 91.5 -56t38.5 -108q0 -81 -51.5 -130.5t-141.5 -49.5zM361 378q55 0 85 30t30 77t-30.5 77.5t-84.5 30.5h-200v-215h200zM365 74q58 0 91 31t33 84q0 49 -32.5 82t-91.5 33h-204v-230 h204z" />
<glyph unicode="C" horiz-adv-x="676" d="M394 -12q-146 0 -244.5 96.5t-98.5 248.5t98.5 248.5t244.5 96.5q160 0 253 -132l-70 -39q-29 43 -78 70t-105 27q-110 0 -183.5 -76.5t-73.5 -194.5t73.5 -194.5t183.5 -76.5q56 0 105 26.5t78 70.5l71 -39q-97 -132 -254 -132z" />
<glyph unicode="D" horiz-adv-x="700" d="M306 0h-228v667h228q153 0 247.5 -95t94.5 -239q0 -145 -94.5 -239t-247.5 -94zM306 74q118 0 187 74t69 185q0 112 -68 186t-188 74h-145v-519h145z" />
<glyph unicode="E" horiz-adv-x="569" d="M515 0h-437v667h437v-74h-354v-215h347v-74h-347v-230h354v-74z" />
<glyph unicode="F" horiz-adv-x="550" d="M161 0h-83v667h437v-74h-354v-215h347v-74h-347v-304z" />
<glyph unicode="G" horiz-adv-x="713" d="M394 -13q-145 0 -244 96.5t-99 249.5t99 249t244 96q158 0 259 -125l-66 -41q-32 42 -83.5 67t-109.5 25q-110 0 -183.5 -76.5t-73.5 -194.5t73.5 -195t183.5 -77q55 0 102.5 21.5t76.5 50.5v136h-229v74h312v-241q-103 -115 -262 -115z" />
<glyph unicode="H" horiz-adv-x="712" d="M634 0h-83v306h-390v-306h-83v667h83v-287h390v287h83v-667z" />
<glyph unicode="I" horiz-adv-x="239" d="M161 0h-83v667h83v-667z" />
<glyph unicode="J" horiz-adv-x="475" d="M185 -12q-108 0 -174 77l43 63q55 -66 126 -66q61 0 97.5 38.5t36.5 101.5v465h83v-466q0 -104 -59 -158.5t-153 -54.5z" />
<glyph unicode="K" horiz-adv-x="601" d="M584 0h-103l-253 300l-67 -76v-224h-83v667h83v-345l295 345h104l-278 -317z" />
<glyph unicode="L" horiz-adv-x="510" d="M471 0h-393v667h83v-593h310v-74z" />
<glyph unicode="M" horiz-adv-x="809" d="M731 0h-83v549l-227 -549h-34l-226 549v-549h-83v667h119l207 -502l208 502h119v-667z" />
<glyph unicode="N" horiz-adv-x="708" d="M630 0h-80l-389 532v-532h-83v667h85l384 -521v521h83v-667z" />
<glyph unicode="O" horiz-adv-x="765" d="M382 -12q-147 0 -239 98t-92 247t92 247t239 98q146 0 238.5 -98t92.5 -247t-92.5 -247t-238.5 -98zM382 62q110 0 177.5 76.5t67.5 194.5q0 119 -67.5 195t-177.5 76q-111 0 -178 -76t-67 -195q0 -118 67 -194.5t178 -76.5z" />
<glyph unicode="P" horiz-adv-x="587" d="M161 0h-83v667h268q97 0 153 -58t56 -143t-56.5 -143t-152.5 -58h-185v-265zM336 339q59 0 96 35.5t37 91.5t-37 91.5t-96 35.5h-175v-254h175z" />
<glyph unicode="Q" horiz-adv-x="765" d="M382 -12q-147 0 -239 98t-92 247t92 247t239 98q146 0 238.5 -98t92.5 -247t-92 -246l64 -68l-58 -50l-65 69q-78 -50 -180 -50zM382 62q71 0 127 34l-95 103l58 49l94 -102q61 75 61 187q0 119 -67.5 195t-177.5 76q-111 0 -178 -76t-67 -195q0 -118 67 -194.5 t178 -76.5z" />
<glyph unicode="R" horiz-adv-x="608" d="M562 0h-98l-170 265h-133v-265h-83v667h268q93 0 151 -55t58 -146q0 -86 -50 -137t-123 -57zM336 338q59 0 96 36t37 92t-37 91.5t-96 35.5h-175v-255h175z" />
<glyph unicode="S" horiz-adv-x="586" d="M294 -12q-162 0 -256 106l49 63q85 -95 210 -95q81 0 119 34.5t38 80.5q0 35 -22 59t-56.5 37.5t-77 24.5t-84.5 24.5t-76.5 32.5t-56.5 54t-22 83q0 82 65 133.5t164 51.5q149 0 237 -93l-50 -61q-73 80 -193 80q-60 0 -98.5 -29.5t-38.5 -76.5q0 -35 29.5 -58t73 -34 t95 -27.5t95 -35t73 -59.5t29.5 -99q0 -82 -60.5 -139t-185.5 -57z" />
<glyph unicode="T" horiz-adv-x="570" d="M326 0h-83v593h-211v74h506v-74h-212v-593z" />
<glyph unicode="U" horiz-adv-x="700" d="M350 -12q-133 0 -202.5 72.5t-69.5 198.5v408h83v-406q0 -93 49 -146t140 -53t140 53t49 146v406h83v-407q0 -127 -69.5 -199.5t-202.5 -72.5z" />
<glyph unicode="V" horiz-adv-x="658" d="M380 0h-103l-268 667h95l225 -576l225 576h95z" />
<glyph unicode="W" horiz-adv-x="883" d="M678 0h-90l-147 538l-147 -538h-90l-190 667h92l148 -556l153 556h69l153 -556l147 556h92z" />
<glyph unicode="X" horiz-adv-x="652" d="M639 0h-100l-213 284l-213 -284h-101l260 342l-245 325h101l198 -267l197 267h101l-244 -324z" />
<glyph unicode="Y" horiz-adv-x="626" d="M355 0h-83v282l-263 385h97l207 -310l207 310h97l-262 -385v-282z" />
<glyph unicode="Z" horiz-adv-x="585" d="M536 0h-488v69l375 524h-375v74h481v-69l-375 -524h382v-74z" />
<glyph unicode="[" horiz-adv-x="243" d="M226 -190h-186v868h186v-55h-128v-758h128v-55z" />
<glyph unicode="\" horiz-adv-x="296" d="M237 -20l-237 707h59l237 -707h-59z" />
<glyph unicode="]" horiz-adv-x="243" d="M203 -190h-186v55h128v758h-128v55h186v-868z" />
<glyph unicode="^" horiz-adv-x="432" d="M413 333h-62l-135 279l-135 -279h-62l169 334h57z" />
<glyph unicode="_" horiz-adv-x="564" d="M567 -95h-570v55h570v-55z" />
<glyph unicode="`" horiz-adv-x="226" d="M226 556h-57l-169 144h78z" />
<glyph unicode="a" horiz-adv-x="527" d="M452 0h-75v55q-61 -67 -160 -67q-67 0 -118 43t-51 117q0 76 50.5 117.5t118.5 41.5q103 0 160 -66v87q0 48 -34 75t-88 27q-85 0 -148 -67l-35 52q77 80 193 80q83 0 135 -40t52 -123v-332zM244 42q90 0 133 60v91q-43 60 -133 60q-52 0 -85.5 -29.5t-33.5 -76.5 q0 -46 33.5 -75.5t85.5 -29.5z" />
<glyph unicode="b" horiz-adv-x="575" d="M150 131q20 -32 60.5 -54t83.5 -22q72 0 114 52t42 134t-42 134.5t-114 52.5q-43 0 -83.5 -22.5t-60.5 -55.5v-219zM150 0h-75v667h75v-257q63 85 163 85q95 0 155 -69.5t60 -184.5q0 -116 -59.5 -184.5t-155.5 -68.5q-101 0 -163 84v-72z" />
<glyph unicode="c" horiz-adv-x="495" d="M288 -12q-107 0 -174 72.5t-67 181.5t67 181t174 72q112 0 177 -84l-50 -46q-46 63 -123 63q-76 0 -121.5 -52t-45.5 -134t45.5 -134.5t121.5 -52.5t123 63l50 -46q-65 -84 -177 -84z" />
<glyph unicode="d" horiz-adv-x="575" d="M500 0h-75v72q-62 -84 -163 -84q-96 0 -155.5 68.5t-59.5 184.5q0 115 59.5 184.5t155.5 69.5q100 0 163 -85v257h75v-667zM280 55q44 0 84 22t61 54v219q-21 33 -61.5 55.5t-83.5 22.5q-71 0 -113 -52.5t-42 -134.5t42 -134t113 -52z" />
<glyph unicode="e" horiz-adv-x="563" d="M293 -12q-108 0 -177 70.5t-69 183.5q0 106 68 179.5t170 73.5q107 0 169.5 -73.5t62.5 -185.5v-19h-391q5 -71 52 -119t122 -48q90 0 149 61l36 -49q-74 -74 -192 -74zM443 272q-1 62 -42 111.5t-117 49.5q-72 0 -113.5 -49t-44.5 -112h317z" />
<glyph unicode="f" horiz-adv-x="283" d="M171 0h-75v417h-80v66h80v37q0 74 37.5 115.5t102.5 41.5q62 0 102 -37l-31 -49q-27 24 -60 24q-37 0 -56.5 -24.5t-19.5 -70.5v-37h98v-66h-98v-417z" />
<glyph unicode="g" horiz-adv-x="574" d="M269 -196q-64 0 -109 15.5t-86 56.5l38 56q55 -66 157 -66q67 0 111 35.5t44 109.5v69q-27 -38 -70 -62t-92 -24q-96 0 -155.5 67.5t-59.5 182.5t59.5 183t155.5 68q99 0 162 -85v73h75v-469q0 -111 -65 -160.5t-165 -49.5zM280 60q43 0 83.5 23t60.5 56v211 q-20 33 -60 55.5t-84 22.5q-72 0 -113.5 -51t-41.5 -133q0 -81 42 -132.5t113 -51.5z" />
<glyph unicode="h" horiz-adv-x="552" d="M477 0h-75v318q0 60 -28 85t-81 25q-41 0 -80.5 -22t-62.5 -53v-353h-75v667h75v-254q28 33 75 57.5t98 24.5q154 0 154 -154v-341z" />
<glyph unicode="i" horiz-adv-x="225" d="M112 552q-20 0 -35 14.5t-15 35.5t15 36t35 15q21 0 36 -15t15 -36t-15 -35.5t-36 -14.5zM150 0h-75v483h75v-483z" />
<glyph unicode="j" horiz-adv-x="225" d="M112 552q-20 0 -35 14.5t-15 35.5t15 36t35 15q21 0 36 -15t15 -36t-15 -35.5t-36 -14.5zM7 -196q-59 0 -106 36l27 57q31 -31 69 -31q36 0 57 21.5t21 65.5v530h75v-530q0 -71 -37 -110t-106 -39z" />
<glyph unicode="k" horiz-adv-x="514" d="M500 0h-96l-174 217l-80 -79v-138h-75v667h75v-441l254 257h95l-214 -219z" />
<glyph unicode="l" horiz-adv-x="225" d="M150 0h-75v667h75v-667z" />
<glyph unicode="m" horiz-adv-x="808" d="M733 0h-75v328q0 100 -89 100q-36 0 -72 -22t-56 -52v-354h-75v328q0 100 -89 100q-35 0 -70.5 -22t-56.5 -53v-353h-75v483h75v-70q18 28 63 55t93 27q53 0 86 -25t44 -65q22 36 67 63t95 27q135 0 135 -146v-349z" />
<glyph unicode="n" horiz-adv-x="551" d="M476 0h-75v316q0 61 -28 86.5t-80 25.5q-42 0 -81.5 -22t-61.5 -53v-353h-75v483h75v-70q28 33 75 57.5t97 24.5q154 0 154 -156v-339z" />
<glyph unicode="o" horiz-adv-x="572" d="M286 -12q-108 0 -173.5 73t-65.5 181t65.5 180.5t173.5 72.5t173.5 -72.5t65.5 -180.5t-65.5 -181t-173.5 -73zM286 55q74 0 117 54.5t43 132.5t-43 132t-117 54t-117.5 -54.5t-43.5 -131.5q0 -78 43.5 -132.5t117.5 -54.5z" />
<glyph unicode="p" horiz-adv-x="572" d="M313 -12q-102 0 -163 85v-257h-75v667h75v-72q27 38 70 61t93 23q96 0 155.5 -68.5t59.5 -184.5t-59.5 -185t-155.5 -69zM294 55q71 0 113 52.5t42 134.5t-42 134t-113 52q-43 0 -83.5 -22.5t-60.5 -54.5v-218q20 -33 60.5 -55.5t83.5 -22.5z" />
<glyph unicode="q" horiz-adv-x="572" d="M277 55q44 0 84.5 22.5t59.5 55.5v218q-19 32 -59.5 54.5t-84.5 22.5q-71 0 -112.5 -52t-41.5 -134t41.5 -134.5t112.5 -52.5zM259 -12q-96 0 -155.5 69t-59.5 185t59.5 184.5t155.5 68.5q50 0 93 -23t69 -61v72h75v-667h-75v257q-61 -85 -162 -85z" />
<glyph unicode="r" horiz-adv-x="330" d="M150 0h-75v483h75v-78q67 88 161 88v-77q-14 3 -30 3q-34 0 -74 -24t-57 -53v-342z" />
<glyph unicode="s" horiz-adv-x="465" d="M228 -12q-123 0 -195 76l39 54q25 -29 68.5 -49t90.5 -20q54 0 84 23t30 60q0 32 -31 50.5t-74.5 28t-87.5 22t-75 43t-31 80.5q0 59 48.5 99t131.5 40q109 0 179 -70l-35 -52q-51 61 -144 61q-49 0 -78 -21.5t-29 -54.5q0 -29 31 -45.5t74.5 -26t87.5 -22.5t75 -45.5 t31 -84.5q0 -64 -50 -105t-140 -41z" />
<glyph unicode="t" horiz-adv-x="294" d="M197 -12q-53 0 -80 29t-27 84v316h-80v66h80v132h75v-132h98v-66h-98v-300q0 -28 12.5 -45t36.5 -17q33 0 51 20l22 -56q-33 -31 -90 -31z" />
<glyph unicode="u" horiz-adv-x="551" d="M476 0h-75v68q-30 -34 -75.5 -57t-96.5 -23q-154 0 -154 154v341h75v-318q0 -60 27.5 -85t80.5 -25q42 0 81.5 21t61.5 52v355h75v-483z" />
<glyph unicode="v" horiz-adv-x="490" d="M286 0h-82l-201 483h81l161 -396l160 396h82z" />
<glyph unicode="w" horiz-adv-x="734" d="M568 0h-75l-126 388l-126 -388h-75l-154 483h78l118 -385l127 385h64l127 -385l118 385h78z" />
<glyph unicode="x" horiz-adv-x="486" d="M475 0h-87l-145 198l-145 -198h-86l185 248l-175 235h87l134 -184l134 184h87l-175 -235z" />
<glyph unicode="y" horiz-adv-x="490" d="M48 -189l12 68q18 -8 41 -8q26 0 43 11t29 40l32 73l-202 488h81l161 -396l160 396h82l-242 -581q-40 -96 -142 -98q-30 0 -55 7z" />
<glyph unicode="z" horiz-adv-x="472" d="M420 0h-368v58l266 359h-266v66h364v-57l-268 -361h272v-65z" />
<glyph unicode="{" horiz-adv-x="260" d="M243 -190h-61q-50 0 -87.5 37.5t-37.5 96.5v206q0 30 -13.5 49.5t-38.5 19.5v50q25 0 38.5 19.5t13.5 49.5v205q0 60 37.5 97.5t87.5 37.5h61v-55h-61q-27 0 -46.5 -22.5t-19.5 -57.5v-211q0 -68 -46 -88q46 -20 46 -88v-211q0 -34 19.5 -57t46.5 -23h61v-55z" />
<glyph unicode="|" horiz-adv-x="211" d="M133 -20h-55v707h55v-707z" />
<glyph unicode="}" horiz-adv-x="260" d="M17 -190v55h61q27 0 46.5 23t19.5 57v211q0 68 46 88q-46 20 -46 88v211q0 35 -19.5 57.5t-46.5 22.5h-61v55h61q50 0 87.5 -37.5t37.5 -97.5v-205q0 -30 13.5 -49.5t38.5 -19.5v-50q-25 0 -38.5 -19.5t-13.5 -49.5v-206q0 -59 -37.5 -96.5t-87.5 -37.5h-61z" />
<glyph unicode="~" horiz-adv-x="503" d="M419 667l56 -7q-5 -51 -12.5 -89t-22.5 -74t-41 -55t-62 -19q-35 0 -58 19.5t-34.5 47.5t-21 56t-23.5 47.5t-35 19.5q-63 0 -82 -191l-56 7q5 50 13 88.5t23 74.5t41 55t61 19t58.5 -19.5t35 -48t20.5 -56.5t23 -47.5t35 -19.5q65 0 82 192z" />
<glyph unicode="&#xa2;" horiz-adv-x="495" d="M252 -100v91q-92 12 -148.5 81.5t-56.5 169.5q0 98 56.5 167.5t148.5 82.5v73h59v-71q94 -8 154 -83l-50 -46q-40 54 -104 62v-371q63 6 104 62l50 -46q-58 -75 -154 -83v-89h-59zM125 242q0 -70 34 -120t93 -63v364q-59 -13 -93 -62.5t-34 -118.5z" />
<glyph unicode="&#xa3;" horiz-adv-x="518" d="M19 268v54h106q-28 32 -38.5 45.5t-24.5 46t-14 66.5q0 82 66 139.5t158 57.5q68 0 121 -29.5t81 -82.5l-67 -40q-14 34 -48.5 58t-78.5 24q-59 0 -101 -35t-42 -93q0 -26 9 -50t17.5 -37t28.5 -37.5t26 -32.5h150v-54h-122q7 -23 7 -43q0 -78 -76 -132q25 9 52 9 q33 0 76.5 -20.5t71.5 -20.5q31 0 57 12.5t38 27.5l36 -67q-49 -47 -135 -47q-47 0 -95 23t-84 23q-42 0 -118 -40l-30 62q64 29 98.5 68.5t34.5 84.5q0 30 -15 60h-145z" />
<glyph unicode="&#xa5;" horiz-adv-x="626" d="M355 0h-83v122h-250v53h250v107h-250v52h214l-227 333h97l207 -310l207 310h97l-227 -333h215v-52h-250v-107h250v-53h-250v-122z" />
<glyph unicode="&#xa8;" horiz-adv-x="272" d="M286 604q0 -19 -14 -33t-33 -14t-33 14t-14 33t14 32.5t33 13.5t33 -13.5t14 -32.5zM79 604q0 -19 -13.5 -33t-32.5 -14t-33 13.5t-14 33.5q0 19 14 32.5t33 13.5t32.5 -13.5t13.5 -32.5z" />
<glyph unicode="&#xa9;" horiz-adv-x="778" d="M734 334q0 -143 -101 -244t-244 -101t-244 101.5t-101 243.5q0 143 101 244t244 101t244 -101t101 -244zM703 334q0 130 -92 222t-222 92t-222 -92t-92 -222t92 -222t222 -92t222 92t92 222zM512 212l26 -25q-57 -66 -147 -66q-87 0 -147.5 61.5t-60.5 152.5t60.5 152 t147.5 61q90 0 146 -66l-25 -24q-19 26 -52.5 41.5t-68.5 15.5q-70 0 -120.5 -50.5t-50.5 -129.5q0 -77 51 -129t120 -52q36 0 68.5 16t52.5 42z" />
<glyph unicode="&#xab;" horiz-adv-x="439" d="M409 63h-75l-160 180l160 177h75l-160 -177zM265 63h-75l-160 180l160 177h75l-160 -177z" />
<glyph unicode="&#xad;" horiz-adv-x="300" d="M270 209h-240v66h240v-66z" />
<glyph unicode="&#xae;" horiz-adv-x="494" d="M459 465q0 -88 -62 -150t-150 -62t-150 62t-62 150t62 150t150 62q89 0 150.5 -61.5t61.5 -150.5zM430 465q0 76 -53.5 129.5t-129.5 53.5q-77 0 -130.5 -53.5t-53.5 -129.5t54 -130t130 -54t129.5 54t53.5 130zM345 343h-40l-63 96h-44v-96h-32v243h99q32 0 54.5 -20.5 t22.5 -53.5q0 -35 -22.5 -53.5t-39.5 -18.5zM309 512q0 19 -13.5 32.5t-30.5 13.5h-67v-90h67q16 0 30 13t14 31z" />
<glyph unicode="&#xb4;" horiz-adv-x="226" d="M226 700l-169 -144h-57l148 144h78z" />
<glyph unicode="&#xb8;" horiz-adv-x="205" d="M101 -191q-63 0 -101 30l19 38q35 -29 80 -29q25 0 43 11.5t18 30.5q0 35 -37 35q-23 0 -38 -17l-33 19l31 84h45l-26 -66q16 11 37 11q29 0 47.5 -18.5t18.5 -48.5q0 -36 -30 -58t-74 -22z" />
<glyph unicode="&#xbb;" horiz-adv-x="439" d="M265 243l-160 -180h-75l160 180l-160 177h75zM409 243l-160 -180h-75l160 180l-160 177h75z" />
<glyph unicode="&#xc2;" horiz-adv-x="658" d="M463 723h-51l-83 106l-80 -106h-51l95 144h72zM649 0h-95l-59 148h-332l-59 -148h-95l268 667h103zM470 222l-141 359l-142 -359h283z" />
<glyph unicode="&#xce;" horiz-adv-x="239" d="M253 723h-51l-83 106l-80 -106h-51l95 144h72zM161 0h-83v667h83v-667z" />
<glyph unicode="&#xe2;" horiz-adv-x="527" d="M452 0h-75v55q-61 -67 -160 -67q-67 0 -118 43t-51 117q0 76 50.5 117.5t118.5 41.5q103 0 160 -66v87q0 48 -34 75t-88 27q-85 0 -148 -67l-35 52q77 80 193 80q83 0 135 -40t52 -123v-332zM244 42q90 0 133 60v91q-43 60 -133 60q-52 0 -85.5 -29.5t-33.5 -76.5 q0 -46 33.5 -75.5t85.5 -29.5zM398 556h-51l-83 106l-80 -106h-51l95 144h72z" />
<glyph unicode="&#xee;" horiz-adv-x="225" d="M245 556h-51l-83 106l-80 -106h-51l95 144h72zM150 0h-75v483h75v-483z" />
<glyph unicode="&#x102;" horiz-adv-x="658" d="M649 0h-95l-59 148h-332l-59 -148h-95l268 667h103zM470 222l-141 359l-142 -359h283zM504 793q-65 -88 -175 -88q-109 0 -176 88l37 32q52 -72 139 -72q88 0 138 72z" />
<glyph unicode="&#x103;" horiz-adv-x="527" d="M452 0h-75v55q-61 -67 -160 -67q-67 0 -118 43t-51 117q0 76 50.5 117.5t118.5 41.5q103 0 160 -66v87q0 48 -34 75t-88 27q-85 0 -148 -67l-35 52q77 80 193 80q83 0 135 -40t52 -123v-332zM244 42q90 0 133 60v91q-43 60 -133 60q-52 0 -85.5 -29.5t-33.5 -76.5 q0 -46 33.5 -75.5t85.5 -29.5zM439 626q-65 -88 -175 -88q-109 0 -176 88l37 32q52 -72 139 -72q88 0 138 72z" />
<glyph unicode="&#x15e;" horiz-adv-x="586" d="M288 -191q-64 0 -101 30l19 38q35 -29 80 -29q25 0 43 11.5t18 30.5q0 35 -37 35q-23 0 -38 -17l-33 19l23 62q-140 11 -224 105l49 63q85 -95 210 -95q81 0 119 34.5t38 80.5q0 35 -22 59t-56.5 37.5t-77 24.5t-84.5 24.5t-76.5 32.5t-56.5 54t-22 83q0 82 65 133.5 t164 51.5q149 0 237 -93l-50 -61q-73 80 -193 80q-60 0 -98.5 -29.5t-38.5 -76.5q0 -35 29.5 -58t73 -34t95 -27.5t95 -35t73 -59.5t29.5 -99q0 -80 -57.5 -136.5t-176.5 -59.5l-17 -43q16 11 37 11q29 0 47.5 -18.5t18.5 -48.5q0 -36 -30 -58t-74 -22z" />
<glyph unicode="&#x15f;" horiz-adv-x="465" d="M227 -191q-63 0 -101 30l19 38q35 -29 80 -29q25 0 43 11.5t18 30.5q0 35 -37 35q-23 0 -38 -17l-33 19l23 62q-105 8 -168 75l39 54q25 -29 68.5 -49t90.5 -20q54 0 84 23t30 60q0 32 -31 50.5t-74.5 28t-87.5 22t-75 43t-31 80.5q0 59 48.5 99t131.5 40q109 0 179 -70 l-35 -52q-51 61 -144 61q-49 0 -78 -21.5t-29 -54.5q0 -29 31 -45.5t74.5 -26t87.5 -22.5t75 -45.5t31 -84.5q0 -61 -45 -101t-128 -44l-17 -44q16 11 37 11q29 0 47.5 -18.5t18.5 -48.5q0 -36 -30 -58t-74 -22z" />
<glyph unicode="&#x162;" horiz-adv-x="570" d="M341 -138q0 -39 -20 -75t-51 -59l-33 26q23 15 39.5 39.5t18.5 46.5q-2 -2 -11 -2q-18 0 -30 12.5t-12 31.5q0 20 13.5 33.5t32.5 13.5q22 0 37.5 -18t15.5 -49zM326 0h-83v593h-211v74h506v-74h-212v-593z" />
<glyph unicode="&#x163;" horiz-adv-x="294" d="M203 -138q0 -39 -20 -75t-51 -59l-33 26q23 15 39.5 39.5t18.5 46.5q-2 -2 -11 -2q-18 0 -30 12.5t-12 31.5q0 20 13.5 33.5t32.5 13.5q22 0 37.5 -18t15.5 -49zM197 -12q-53 0 -80 29t-27 84v316h-80v66h80v132h75v-132h98v-66h-98v-300q0 -28 12.5 -45t36.5 -17 q33 0 51 20l22 -56q-33 -31 -90 -31z" />
<glyph unicode="&#x192;" horiz-adv-x="431" d="M109 -161h-84l92 415h-68v68h82l46 204q15 70 62 110.5t112 40.5q59 0 94 -36l-37 -61q-18 23 -50 23q-36 0 -63 -24.5t-37 -67.5l-42 -189h139v-68h-154z" />
<glyph unicode="&#x1a0;" horiz-adv-x="765" d="M382 -12q-147 0 -239 98t-92 247t92 247t239 98q154 0 249 -110q41 34 46 76q-2 -2 -11 -2q-17 0 -28 12t-11 29q0 18 12 31t30 13q21 0 35.5 -17t14.5 -46q0 -37 -18.5 -71t-46.5 -55q59 -91 59 -205q0 -149 -92.5 -247t-238.5 -98zM382 62q110 0 177.5 76.5t67.5 194.5 q0 119 -67.5 195t-177.5 76q-111 0 -178 -76t-67 -195q0 -118 67 -194.5t178 -76.5z" />
<glyph unicode="&#x1a1;" horiz-adv-x="572" d="M527 530q0 -71 -58 -120q56 -68 56 -168q0 -108 -65.5 -181t-173.5 -73t-173.5 73t-65.5 181t65.5 180.5t173.5 72.5q92 0 157 -57q37 32 42 72q-1 0 -5 -0.5t-6 -0.5q-17 0 -28.5 11.5t-11.5 29.5q0 17 12.5 30t30.5 13q21 0 35.5 -17t14.5 -46zM286 55q74 0 117 54.5 t43 132.5t-43 132t-117 54t-117.5 -54.5t-43.5 -131.5q0 -78 43.5 -132.5t117.5 -54.5z" />
<glyph unicode="&#x1af;" horiz-adv-x="700" d="M738 728q0 -48 -31 -90t-85 -64v-314q0 -127 -69.5 -199.5t-202.5 -72.5t-202.5 72.5t-69.5 198.5v408h83v-406q0 -93 49 -146t140 -53t140 53t49 146v406h83v-54q29 15 50 41.5t23 53.5h-5q-4 -1 -6 -1q-17 0 -28 11.5t-11 29.5t12.5 30.5t30.5 12.5q21 0 35.5 -17 t14.5 -46z" />
<glyph unicode="&#x1b0;" horiz-adv-x="551" d="M476 0h-75v68q-30 -34 -75.5 -57t-96.5 -23q-154 0 -154 154v341h75v-318q0 -60 27.5 -85t80.5 -25q42 0 81.5 21t61.5 52v355h75v-48q48 36 51 81h-5q-4 -1 -6 -1q-17 0 -28.5 11.5t-11.5 29.5q0 17 12.5 30t30.5 13q21 0 36 -17t15 -46q0 -43 -25.5 -82t-68.5 -62v-392 z" />
<glyph unicode="&#x1fc;" horiz-adv-x="947" d="M668 867l-169 -144h-57l148 144h78zM893 0h-437v148h-263l-91 -148h-95l416 667h470v-74h-354v-215h347v-74h-347v-230h354v-74zM456 222v359l-222 -359h222z" />
<glyph unicode="&#x1fd;" horiz-adv-x="889" d="M586 700l-169 -144h-57l148 144h78zM843 217h-367q5 -71 48 -118t113 -47q84 0 139 61l36 -51q-72 -74 -178 -74q-136 0 -193 116q-26 -52 -79.5 -84t-119.5 -32q-82 0 -138 42.5t-56 117.5t51.5 117t126.5 42q112 0 175 -64v86q0 47 -36.5 74t-96.5 27q-94 0 -161 -67 l-35 52q79 80 205 80q64 0 111 -26t60 -79q60 105 179 105q101 0 158.5 -73t57.5 -186v-19zM476 272h293q-1 63 -38 112t-109 49q-66 0 -104.5 -49.5t-41.5 -111.5zM401 180v12q-52 61 -145 61q-59 0 -95 -27.5t-36 -73.5q0 -45 36 -72.5t95 -27.5q62 0 103.5 39t41.5 89z " />
<glyph unicode="&#x1fe;" horiz-adv-x="765" d="M552 867l-169 -144h-57l148 144h78zM382 -12q-97 0 -173 45l-22 -33h-66l44 65q-114 98 -114 268q0 149 92 247t239 98q92 0 167 -42l21 31h66l-42 -62q57 -47 88 -117.5t31 -154.5q0 -149 -92.5 -247t-238.5 -98zM382 62q110 0 177.5 76.5t67.5 194.5q0 130 -78 205 l-297 -441q55 -35 130 -35zM137 333q0 -126 73 -201l296 440q-56 32 -124 32q-111 0 -178 -76t-67 -195z" />
<glyph unicode="&#x1ff;" horiz-adv-x="572" d="M455 700l-169 -144h-57l148 144h78zM118 0h-54l48 61q-65 71 -65 181q0 108 65.5 180.5t173.5 72.5q79 0 137 -41l23 29h54l-45 -57q70 -72 70 -184q0 -108 -65.5 -181t-173.5 -73q-83 0 -142 45zM286 55q74 0 117 54.5t43 132.5q0 73 -38 125l-220 -278q42 -34 98 -34z M125 242q0 -70 34 -121l219 277q-38 30 -92 30q-74 0 -117.5 -54.5t-43.5 -131.5z" />
<glyph unicode="&#x218;" horiz-adv-x="586" d="M345 -138q0 -39 -20 -75t-51 -59l-33 26q23 15 39.5 39.5t18.5 46.5q-2 -2 -11 -2q-18 0 -30 12.5t-12 31.5q0 20 13.5 33.5t32.5 13.5q22 0 37.5 -18t15.5 -49zM294 -12q-162 0 -256 106l49 63q85 -95 210 -95q81 0 119 34.5t38 80.5q0 35 -22 59t-56.5 37.5t-77 24.5 t-84.5 24.5t-76.5 32.5t-56.5 54t-22 83q0 82 65 133.5t164 51.5q149 0 237 -93l-50 -61q-73 80 -193 80q-60 0 -98.5 -29.5t-38.5 -76.5q0 -35 29.5 -58t73 -34t95 -27.5t95 -35t73 -59.5t29.5 -99q0 -82 -60.5 -139t-185.5 -57z" />
<glyph unicode="&#x219;" horiz-adv-x="465" d="M291 -138q0 -39 -20 -75t-51 -59l-33 26q23 15 39.5 39.5t18.5 46.5q-2 -2 -11 -2q-18 0 -30 12.5t-12 31.5q0 20 13.5 33.5t32.5 13.5q22 0 37.5 -18t15.5 -49zM228 -12q-123 0 -195 76l39 54q25 -29 68.5 -49t90.5 -20q54 0 84 23t30 60q0 32 -31 50.5t-74.5 28 t-87.5 22t-75 43t-31 80.5q0 59 48.5 99t131.5 40q109 0 179 -70l-35 -52q-51 61 -144 61q-49 0 -78 -21.5t-29 -54.5q0 -29 31 -45.5t74.5 -26t87.5 -22.5t75 -45.5t31 -84.5q0 -64 -50 -105t-140 -41z" />
<glyph unicode="&#x21a;" horiz-adv-x="570" d="M341 -138q0 -39 -20 -75t-51 -59l-33 26q23 15 39.5 39.5t18.5 46.5q-2 -2 -11 -2q-18 0 -30 12.5t-12 31.5q0 20 13.5 33.5t32.5 13.5q22 0 37.5 -18t15.5 -49zM326 0h-83v593h-211v74h506v-74h-212v-593z" />
<glyph unicode="&#x21b;" horiz-adv-x="294" d="M203 -138q0 -39 -20 -75t-51 -59l-33 26q23 15 39.5 39.5t18.5 46.5q-2 -2 -11 -2q-18 0 -30 12.5t-12 31.5q0 20 13.5 33.5t32.5 13.5q22 0 37.5 -18t15.5 -49zM197 -12q-53 0 -80 29t-27 84v316h-80v66h80v132h75v-132h98v-66h-98v-300q0 -28 12.5 -45t36.5 -17 q33 0 51 20l22 -56q-33 -31 -90 -31z" />
<glyph unicode="&#x2c6;" horiz-adv-x="265" d="M265 556h-51l-83 106l-80 -106h-51l95 144h72z" />
<glyph unicode="&#x2da;" horiz-adv-x="196" d="M98 543q-40 0 -69 28.5t-29 69.5t29 70t69 29t69 -29t29 -70t-29 -69.5t-69 -28.5zM98 582q24 0 41 17.5t17 41.5q0 25 -16.5 42t-41.5 17q-24 0 -41 -17t-17 -42q0 -24 17 -41.5t41 -17.5z" />
<glyph unicode="&#x2dc;" horiz-adv-x="313" d="M216 554q-25 0 -43.5 14.5t-27.5 31.5t-22.5 31.5t-29.5 14.5q-21 0 -34.5 -21.5t-13.5 -64.5h-45q0 60 25.5 97t71.5 37q24 0 42.5 -14.5t28 -31.5t23 -31.5t29.5 -14.5q21 0 34.5 21.5t13.5 64.5h45q0 -60 -25.5 -97t-71.5 -37z" />
<glyph unicode="&#x401;" horiz-adv-x="569" d="M446 771q0 -19 -14 -33t-33 -14t-33 14t-14 33t14 32.5t33 13.5t33 -13.5t14 -32.5zM239 771q0 -19 -13.5 -33t-32.5 -14t-33 14t-14 33t14 32.5t33 13.5t32.5 -13.5t13.5 -32.5zM515 0h-437v667h437v-74h-354v-215h347v-74h-347v-230h354v-74z" />
<glyph unicode="&#x402;" horiz-adv-x="769" d="M501 -12v74q62 0 98 37t36 101v8q0 72 -39.5 109.5t-115.5 37.5q-83 0 -154 -23v-332h-83v593h-211v74h506v-74h-212v-187q84 23 161 23q113 0 172 -61t59 -160v-8q0 -104 -61 -158t-156 -54z" />
<glyph unicode="&#x403;" horiz-adv-x="550" d="M454 867l-169 -144h-57l148 144h78zM161 0h-83v667h437v-74h-354v-593z" />
<glyph unicode="&#x404;" horiz-adv-x="676" d="M394 -12q-146 0 -244.5 96.5t-98.5 248.5t98.5 248.5t244.5 96.5q160 0 253 -132l-70 -39q-29 43 -78 70t-105 27q-99 0 -169.5 -62.5t-84.5 -163.5h365v-74h-367q10 -107 81.5 -174.5t174.5 -67.5q56 0 105 26.5t78 70.5l71 -39q-97 -132 -254 -132z" />
<glyph unicode="&#x405;" horiz-adv-x="586" d="M294 -12q-162 0 -256 106l49 63q85 -95 210 -95q81 0 119 34.5t38 80.5q0 35 -22 59t-56.5 37.5t-77 24.5t-84.5 24.5t-76.5 32.5t-56.5 54t-22 83q0 82 65 133.5t164 51.5q149 0 237 -93l-50 -61q-73 80 -193 80q-60 0 -98.5 -29.5t-38.5 -76.5q0 -35 29.5 -58t73 -34 t95 -27.5t95 -35t73 -59.5t29.5 -99q0 -82 -60.5 -139t-185.5 -57z" />
<glyph unicode="&#x406;" horiz-adv-x="239" d="M161 0h-83v667h83v-667z" />
<glyph unicode="&#x407;" horiz-adv-x="239" d="M161 0h-83v667h83v-667zM269 771q0 -19 -14 -33t-33 -14t-33 14t-14 33t14 32.5t33 13.5t33 -13.5t14 -32.5zM62 771q0 -19 -13.5 -33t-32.5 -14q-20 0 -33.5 14t-13.5 33t14 32.5t33 13.5t32.5 -13.5t13.5 -32.5z" />
<glyph unicode="&#x408;" horiz-adv-x="475" d="M185 -12q-108 0 -174 77l43 63q55 -66 126 -66q61 0 97.5 38.5t36.5 101.5v465h83v-466q0 -104 -59 -158.5t-153 -54.5z" />
<glyph unicode="&#x409;" horiz-adv-x="1060" d="M32 -12v74q43 0 70 20t48 79.5t35 170.5l41 335h408v-265h185q96 0 152.5 -58t56.5 -143t-56 -143t-153 -58h-268v593h-251l-33 -267q-13 -107 -34.5 -176t-53 -103.5t-65 -46.5t-82.5 -12zM809 328h-175v-254h175q59 0 96 35.5t37 91.5t-37 91.5t-96 35.5z" />
<glyph unicode="&#x40a;" horiz-adv-x="1060" d="M78 0v667h83v-287h390v287h83v-287h197q91 0 144 -55t53 -135q0 -81 -53 -135.5t-144 -54.5h-280v306h-390v-306h-83zM634 74h187q54 0 87.5 32t33.5 84q0 51 -33.5 83.5t-87.5 32.5h-187v-232z" />
<glyph unicode="&#x40b;" horiz-adv-x="785" d="M635 0v201q0 154 -155 154q-83 0 -154 -23v-332h-83v593h-211v74h506v-74h-212v-187q84 23 161 23q114 0 172.5 -61.5t58.5 -167.5v-200h-83z" />
<glyph unicode="&#x40c;" horiz-adv-x="601" d="M473 867l-169 -144h-57l148 144h78zM584 0h-103l-253 300l-67 -76v-224h-83v667h83v-345l295 345h104l-278 -317z" />
<glyph unicode="&#x40e;" horiz-adv-x="626" d="M145 -12q-41 0 -76 15t-54 38l35 66q43 -45 91 -45q38 0 60.5 20t51.5 75l12 23l-256 487h95l209 -413l209 413h95l-291 -549q-35 -66 -75 -98t-106 -32zM489 793q-65 -88 -175 -88q-109 0 -176 88l37 32q52 -72 139 -72q88 0 138 72z" />
<glyph unicode="&#x40f;" horiz-adv-x="712" d="M78 0v667h83v-593h390v593h83v-667h-236v-127h-83v127h-237z" />
<glyph unicode="&#x410;" horiz-adv-x="658" d="M649 0h-95l-59 148h-332l-59 -148h-95l268 667h103zM470 222l-141 359l-142 -359h283z" />
<glyph unicode="&#x411;" horiz-adv-x="587" d="M78 667h433v-74h-350v-191h185q96 0 152.5 -58t56.5 -143t-56 -143t-153 -58h-268v667zM336 328h-175v-254h175q59 0 96 35.5t37 91.5t-37 91.5t-96 35.5z" />
<glyph unicode="&#x412;" horiz-adv-x="629" d="M382 0h-304v667h297q86 0 136.5 -47t50.5 -123q0 -60 -34 -101.5t-83 -51.5q53 -8 91.5 -56t38.5 -108q0 -81 -51.5 -130.5t-141.5 -49.5zM361 378q55 0 85 30t30 77t-30.5 77.5t-84.5 30.5h-200v-215h200zM365 74q58 0 91 31t33 84q0 49 -32.5 82t-91.5 33h-204v-230 h204z" />
<glyph unicode="&#x413;" horiz-adv-x="550" d="M161 0h-83v667h437v-74h-354v-593z" />
<glyph unicode="&#x414;" horiz-adv-x="723" d="M32 -123v190q44 3 70 21t47.5 76t35.5 168l41 335h408v-593h61v-197h-83v123h-497v-123h-83zM267 326q-23 -193 -102 -252h386v519h-251z" />
<glyph unicode="&#x415;" horiz-adv-x="569" d="M515 0h-437v667h437v-74h-354v-215h347v-74h-347v-230h354v-74z" />
<glyph unicode="&#x416;" horiz-adv-x="909" d="M120 0h-103l302 350l-278 317h104l268 -314v314h83v-314l269 314h104l-279 -317l303 -350h-104l-253 300l-40 -46v-254h-83v254l-40 46z" />
<glyph unicode="&#x417;" horiz-adv-x="584" d="M280 -12q-84 0 -151 31t-100 79l49 53q30 -40 84.5 -64.5t115.5 -24.5q78 0 123 33.5t45 91.5q0 60 -46.5 89t-126.5 29h-136v74h136q71 0 116.5 27.5t45.5 82.5q0 54 -45.5 84t-114.5 30q-113 0 -189 -81l-46 52q40 46 102.5 74.5t138.5 28.5q102 0 170.5 -48t68.5 -130 q0 -66 -44.5 -105.5t-99.5 -49.5q55 -5 104.5 -48t49.5 -116q0 -84 -69 -138t-181 -54z" />
<glyph unicode="&#x418;" horiz-adv-x="708" d="M158 0h-80v667h83v-521l384 521h85v-667h-83v532z" />
<glyph unicode="&#x419;" horiz-adv-x="708" d="M158 0h-80v667h83v-521l384 521h85v-667h-83v532zM529 793q-65 -88 -175 -88q-109 0 -176 88l37 32q52 -72 139 -72q88 0 138 72z" />
<glyph unicode="&#x41a;" horiz-adv-x="601" d="M584 0h-103l-253 300l-67 -76v-224h-83v667h83v-345l295 345h104l-278 -317z" />
<glyph unicode="&#x41b;" horiz-adv-x="712" d="M32 -12v74q43 0 70 20t48 79.5t35 170.5l41 335h408v-667h-83v593h-251l-33 -267q-13 -107 -34.5 -176t-53 -103.5t-65 -46.5t-82.5 -12z" />
<glyph unicode="&#x41c;" horiz-adv-x="809" d="M731 0h-83v549l-227 -549h-34l-226 549v-549h-83v667h119l207 -502l208 502h119v-667z" />
<glyph unicode="&#x41d;" horiz-adv-x="712" d="M634 0h-83v306h-390v-306h-83v667h83v-287h390v287h83v-667z" />
<glyph unicode="&#x41e;" horiz-adv-x="765" d="M382 -12q-147 0 -239 98t-92 247t92 247t239 98q146 0 238.5 -98t92.5 -247t-92.5 -247t-238.5 -98zM382 62q110 0 177.5 76.5t67.5 194.5q0 119 -67.5 195t-177.5 76q-111 0 -178 -76t-67 -195q0 -118 67 -194.5t178 -76.5z" />
<glyph unicode="&#x41f;" horiz-adv-x="712" d="M634 0h-83v593h-390v-593h-83v667h556v-667z" />
<glyph unicode="&#x420;" horiz-adv-x="587" d="M161 0h-83v667h268q97 0 153 -58t56 -143t-56.5 -143t-152.5 -58h-185v-265zM336 339q59 0 96 35.5t37 91.5t-37 91.5t-96 35.5h-175v-254h175z" />
<glyph unicode="&#x421;" horiz-adv-x="676" d="M394 -12q-146 0 -244.5 96.5t-98.5 248.5t98.5 248.5t244.5 96.5q160 0 253 -132l-70 -39q-29 43 -78 70t-105 27q-110 0 -183.5 -76.5t-73.5 -194.5t73.5 -194.5t183.5 -76.5q56 0 105 26.5t78 70.5l71 -39q-97 -132 -254 -132z" />
<glyph unicode="&#x422;" horiz-adv-x="570" d="M326 0h-83v593h-211v74h506v-74h-212v-593z" />
<glyph unicode="&#x423;" horiz-adv-x="626" d="M145 -12q-41 0 -76 15t-54 38l35 66q43 -45 91 -45q38 0 60.5 20t51.5 75l12 23l-256 487h95l209 -413l209 413h95l-291 -549q-35 -66 -75 -98t-106 -32z" />
<glyph unicode="&#x424;" horiz-adv-x="806" d="M444 0h-83v65q-144 10 -227 82t-83 186q0 113 83 185t227 82v67h83v-67q143 -10 227 -82.5t84 -184.5q0 -114 -83.5 -186t-227.5 -82v-65zM669 333q0 80 -60 132t-165 61v-386q105 9 165 61t60 132zM137 333q0 -80 59.5 -132t164.5 -61v386q-105 -9 -164.5 -61 t-59.5 -132z" />
<glyph unicode="&#x425;" horiz-adv-x="652" d="M639 0h-100l-213 284l-213 -284h-101l260 342l-245 325h101l198 -267l197 267h101l-244 -324z" />
<glyph unicode="&#x426;" horiz-adv-x="723" d="M612 -123v123h-534v667h83v-593h390v593h83v-593h61v-197h-83z" />
<glyph unicode="&#x427;" horiz-adv-x="611" d="M141 667v-174q0 -154 155 -154q83 0 154 23v305h83v-667h-83v288q-84 -23 -161 -23q-114 0 -172.5 61.5t-58.5 167.5v173h83z" />
<glyph unicode="&#x428;" horiz-adv-x="958" d="M797 667h83v-667h-802v667h83v-593h277v593h83v-593h276v593z" />
<glyph unicode="&#x429;" horiz-adv-x="975" d="M803 667h83v-593h60v-197h-83v123h-780v667h83v-593h277v593h83v-593h277v593z" />
<glyph unicode="&#x42a;" horiz-adv-x="752" d="M511 0h-268v593h-211v74h294v-265h185q96 0 152.5 -58t56.5 -143t-56 -143t-153 -58zM501 328h-175v-254h175q59 0 96 35.5t37 91.5t-37 91.5t-96 35.5z" />
<glyph unicode="&#x42b;" horiz-adv-x="788" d="M78 667h83v-265h185q96 0 152.5 -58t56.5 -143t-56 -143t-153 -58h-268v667zM336 328h-175v-254h175q59 0 96 35.5t37 91.5t-37 91.5t-96 35.5zM710 0h-83v667h83v-667z" />
<glyph unicode="&#x42c;" horiz-adv-x="587" d="M78 667h83v-265h185q96 0 152.5 -58t56.5 -143t-56 -143t-153 -58h-268v667zM336 328h-175v-254h175q59 0 96 35.5t37 91.5t-37 91.5t-96 35.5z" />
<glyph unicode="&#x42d;" horiz-adv-x="676" d="M282 -12q-157 0 -254 132l71 39q29 -44 78 -70.5t105 -26.5q103 0 174.5 67.5t80.5 174.5h-366v74h364q-14 101 -84 163.5t-169 62.5q-56 0 -105 -27t-78 -70l-70 39q93 132 253 132q146 0 244.5 -96.5t98.5 -248.5t-98.5 -248.5t-244.5 -96.5z" />
<glyph unicode="&#x42e;" horiz-adv-x="992" d="M609 -12q-140 0 -231 89.5t-99 228.5h-118v-306h-83v667h83v-287h119q15 132 105 215t224 83q146 0 239 -98t93 -247t-93 -247t-239 -98zM609 62q110 0 178 76.5t68 194.5t-68 194.5t-178 76.5q-111 0 -178 -76t-67 -195q0 -118 67 -194.5t178 -76.5z" />
<glyph unicode="&#x42f;" horiz-adv-x="608" d="M144 0h-97l180 272q-73 6 -123.5 57t-50.5 137q0 91 58.5 146t151.5 55h268v-667h-83v265h-134zM272 338h176v255h-176q-59 0 -96 -35.5t-37 -91.5t37.5 -92t95.5 -36z" />
<glyph unicode="&#x430;" horiz-adv-x="527" d="M452 0h-75v55q-61 -67 -160 -67q-67 0 -118 43t-51 117q0 76 50.5 117.5t118.5 41.5q103 0 160 -66v87q0 48 -34 75t-88 27q-85 0 -148 -67l-35 52q77 80 193 80q83 0 135 -40t52 -123v-332zM244 42q90 0 133 60v91q-43 60 -133 60q-52 0 -85.5 -29.5t-33.5 -76.5 q0 -46 33.5 -75.5t85.5 -29.5z" />
<glyph unicode="&#x431;" horiz-adv-x="577" d="M286 55q74 0 117 54.5t43 133.5q0 77 -43 131t-117 54t-117.5 -54t-43.5 -131q0 -79 43.5 -133.5t117.5 -54.5zM286 -12q-109 0 -174 77t-65 199q0 172 62 254.5t191 99.5q77 12 106.5 23t29.5 26h73q0 -28 -17 -48.5t-48.5 -32.5t-59 -18.5t-65.5 -11.5 q-100 -14 -144.5 -55t-58.5 -109q66 103 182 103q100 0 163 -73t63 -179q0 -108 -65 -181.5t-173 -73.5z" />
<glyph unicode="&#x432;" horiz-adv-x="554" d="M346 0h-271v483h266q63 0 99.5 -34t36.5 -90q0 -41 -22.5 -70.5t-55.5 -39.5q37 -9 62.5 -43t25.5 -75q0 -59 -37.5 -95t-103.5 -36zM331 66q36 0 57 20t21 54q0 31 -21 53t-57 22h-181v-149h181zM328 281q34 0 53 18.5t19 48.5q0 32 -19 50.5t-53 18.5h-178v-136h178z " />
<glyph unicode="&#x433;" horiz-adv-x="436" d="M413 483v-66h-263v-417h-75v483h338z" />
<glyph unicode="&#x434;" horiz-adv-x="561" d="M18 -123v185q37 7 58 44.5t34 138.5l31 238h336v-417h56v-189h-75v123h-365v-123h-75zM207 417l-22 -181q-17 -127 -70 -170h287v351h-195z" />
<glyph unicode="&#x435;" horiz-adv-x="563" d="M293 -12q-108 0 -177 70.5t-69 183.5q0 106 68 179.5t170 73.5q107 0 169.5 -73.5t62.5 -185.5v-19h-391q5 -71 52 -119t122 -48q90 0 149 61l36 -49q-74 -74 -192 -74zM443 272q-1 62 -42 111.5t-117 49.5q-72 0 -113.5 -49t-44.5 -112h317z" />
<glyph unicode="&#x436;" horiz-adv-x="711" d="M110 0h-96l215 264l-214 219h95l208 -213v213h75v-212l208 212h95l-215 -219l216 -264h-96l-174 217l-34 -34v-183h-75v183l-34 34z" />
<glyph unicode="&#x437;" horiz-adv-x="514" d="M246 -12q-139 0 -218 79l37 48q68 -65 181 -65q65 0 103.5 23t38.5 61q0 80 -152 80h-108v61h108q63 0 103 20.5t40 60.5q0 34 -40 55.5t-101 21.5q-101 0 -162 -62l-39 46q75 77 198 77q99 1 160.5 -33.5t61.5 -95.5q0 -50 -40.5 -81t-89.5 -37q51 -4 95.5 -34t44.5 -84 q0 -62 -59.5 -101.5t-161.5 -39.5z" />
<glyph unicode="&#x438;" horiz-adv-x="552" d="M147 0h-72v483h75v-369l253 369h74v-483h-75v376z" />
<glyph unicode="&#x439;" horiz-adv-x="552" d="M147 0h-72v483h75v-369l253 369h74v-483h-75v376zM451 626q-65 -88 -175 -88q-109 0 -176 88l37 32q52 -72 139 -72q88 0 138 72z" />
<glyph unicode="&#x43a;" horiz-adv-x="514" d="M500 0h-96l-174 217l-80 -79v-138h-75v483h75v-257l254 257h95l-214 -219z" />
<glyph unicode="&#x43b;" horiz-adv-x="552" d="M18 -12v62q34 0 56 45t36 150l31 238h336v-483h-75v417h-195l-22 -181q-16 -133 -56 -190.5t-111 -57.5z" />
<glyph unicode="&#x43c;" horiz-adv-x="643" d="M568 0h-75v379l-157 -379h-28l-158 379v-379h-75v483h99l148 -358l146 358h100v-483z" />
<glyph unicode="&#x43d;" horiz-adv-x="552" d="M150 0h-75v483h75v-201h252v201h75v-483h-75v216h-252v-216z" />
<glyph unicode="&#x43e;" horiz-adv-x="572" d="M286 -12q-108 0 -173.5 73t-65.5 181t65.5 180.5t173.5 72.5t173.5 -72.5t65.5 -180.5t-65.5 -181t-173.5 -73zM286 55q74 0 117 54.5t43 132.5t-43 132t-117 54t-117.5 -54.5t-43.5 -131.5q0 -78 43.5 -132.5t117.5 -54.5z" />
<glyph unicode="&#x43f;" horiz-adv-x="552" d="M477 0h-75v417h-252v-417h-75v483h402v-483z" />
<glyph unicode="&#x440;" horiz-adv-x="572" d="M313 -12q-102 0 -163 85v-257h-75v667h75v-72q27 38 70 61t93 23q96 0 155.5 -68.5t59.5 -184.5t-59.5 -185t-155.5 -69zM294 55q71 0 113 52.5t42 134.5t-42 134t-113 52q-43 0 -83.5 -22.5t-60.5 -54.5v-218q20 -33 60.5 -55.5t83.5 -22.5z" />
<glyph unicode="&#x441;" horiz-adv-x="495" d="M288 -12q-107 0 -174 72.5t-67 181.5t67 181t174 72q112 0 177 -84l-50 -46q-46 63 -123 63q-76 0 -121.5 -52t-45.5 -134t45.5 -134.5t121.5 -52.5t123 63l50 -46q-65 -84 -177 -84z" />
<glyph unicode="&#x442;" horiz-adv-x="402" d="M238 0h-75v417h-140v66h356v-66h-141v-417z" />
<glyph unicode="&#x443;" horiz-adv-x="490" d="M48 -189l12 68q18 -8 41 -8q26 0 43 11t29 40l32 73l-202 488h81l161 -396l160 396h82l-242 -581q-40 -96 -142 -98q-30 0 -55 7z" />
<glyph unicode="&#x444;" horiz-adv-x="798" d="M230 495q82 0 132 -85v257h75v-256q22 38 56.5 61t74.5 23q78 0 126 -68.5t48 -184.5t-48.5 -185t-125.5 -69q-82 0 -131 85v-257h-75v256q-22 -38 -57 -61t-75 -23q-78 0 -126 68.5t-48 184.5t48.5 185t125.5 69zM251 428q-55 0 -87 -52.5t-32 -134.5t32 -134t87 -52 q34 0 65 22t46 55v218q-16 33 -47 55.5t-64 22.5zM547 55q55 0 87 52.5t32 134.5t-32 134t-87 52q-33 0 -64 -22.5t-46 -54.5v-218q16 -33 46.5 -55.5t63.5 -22.5z" />
<glyph unicode="&#x445;" horiz-adv-x="486" d="M475 0h-87l-145 198l-145 -198h-86l185 248l-175 235h87l134 -184l134 184h87l-175 -235z" />
<glyph unicode="&#x446;" horiz-adv-x="561" d="M458 -123v123h-383v483h75v-417h252v417h75v-417h56v-189h-75z" />
<glyph unicode="&#x447;" horiz-adv-x="541" d="M65 483h75v-136q0 -65 30 -90t93 -25q78 0 128 26v225h75v-483h-75v197q-64 -32 -147 -32q-94 0 -136.5 38t-42.5 121v159z" />
<glyph unicode="&#x448;" horiz-adv-x="783" d="M633 483h75v-483h-633v483h75v-417h204v417h75v-417h204v417z" />
<glyph unicode="&#x449;" horiz-adv-x="798" d="M633 483h75v-417h62v-189h-75v123h-620v483h75v-417h204v417h75v-417h204v417z" />
<glyph unicode="&#x44a;" horiz-adv-x="610" d="M419 0h-256v417h-140v66h215v-187h181q72 0 112 -42.5t40 -105.5t-40.5 -105.5t-111.5 -42.5zM411 230h-173v-164h173q40 0 61.5 22.5t21.5 59.5t-21.5 59.5t-61.5 22.5z" />
<glyph unicode="&#x44b;" horiz-adv-x="712" d="M75 483h75v-187h181q72 0 112 -42.5t40 -105.5t-40.5 -105.5t-111.5 -42.5h-256v483zM323 230h-173v-164h173q40 0 61.5 22.5t21.5 59.5t-21.5 59.5t-61.5 22.5zM637 0h-75v483h75v-483z" />
<glyph unicode="&#x44c;" horiz-adv-x="522" d="M75 483h75v-187h181q72 0 112 -42.5t40 -105.5t-40.5 -105.5t-111.5 -42.5h-256v483zM323 230h-173v-164h173q40 0 61.5 22.5t21.5 59.5t-21.5 59.5t-61.5 22.5z" />
<glyph unicode="&#x44d;" horiz-adv-x="495" d="M207 -12q-112 0 -177 84l48 44q49 -66 126 -66q69 0 112.5 44t51.5 118h-243v65h242q-9 71 -52.5 113.5t-110.5 42.5q-78 0 -126 -66l-48 44q65 84 177 84q107 0 174.5 -72t67.5 -181t-67.5 -181.5t-174.5 -72.5z" />
<glyph unicode="&#x44e;" horiz-adv-x="767" d="M480 -12q-100 0 -164.5 64.5t-72.5 163.5h-93v-216h-75v483h75v-201h94q12 93 75.5 153t160.5 60q108 0 174 -72.5t66 -180.5t-66 -181t-174 -73zM480 55q75 0 118 54.5t43 132.5t-43 132t-118 54q-73 0 -116.5 -54.5t-43.5 -131.5q0 -78 43 -132.5t117 -54.5z" />
<glyph unicode="&#x44f;" horiz-adv-x="547" d="M147 0h-88l129 190q-55 7 -89.5 46t-34.5 99q0 64 41 106t112 42h255v-483h-75v187h-132zM225 253h172v164h-172q-39 0 -61.5 -22.5t-22.5 -59.5t22 -59.5t62 -22.5z" />
<glyph unicode="&#x451;" horiz-adv-x="563" d="M435 604q0 -19 -14 -33t-33 -14t-33 14t-14 33t14 32.5t33 13.5t33 -13.5t14 -32.5zM228 604q0 -19 -13.5 -33t-32.5 -14q-20 0 -33.5 13.5t-13.5 33.5q0 19 14 32.5t33 13.5t32.5 -13.5t13.5 -32.5zM293 -12q-108 0 -177 70.5t-69 183.5q0 106 68 179.5t170 73.5 q107 0 169.5 -73.5t62.5 -185.5v-19h-391q5 -71 52 -119t122 -48q90 0 149 61l36 -49q-74 -74 -192 -74zM443 272q-1 62 -42 111.5t-117 49.5q-72 0 -113.5 -49t-44.5 -112h317z" />
<glyph unicode="&#x452;" horiz-adv-x="554" d="M309 535h-157v-122q28 33 75 57.5t98 24.5q154 0 154 -154v-388q0 -71 -37 -110t-107 -39q-60 0 -105 36l26 57q31 -31 69 -31q36 0 57.5 21.5t21.5 65.5v365q0 60 -28 85t-81 25q-41 0 -80.5 -22t-62.5 -53v-353h-75v535h-68v48h68v84h75v-84h157v-48z" />
<glyph unicode="&#x453;" horiz-adv-x="436" d="M414 700l-169 -144h-57l148 144h78zM413 483v-66h-263v-417h-75v483h338z" />
<glyph unicode="&#x454;" horiz-adv-x="495" d="M288 -12q-107 0 -174 72.5t-67 181.5t67 181t174 72q112 0 177 -84l-48 -44q-48 66 -125 66q-68 0 -112 -42.5t-53 -113.5h243v-65h-244q8 -74 52 -118t114 -44q76 0 125 66l48 -44q-65 -84 -177 -84z" />
<glyph unicode="&#x455;" horiz-adv-x="465" d="M228 -12q-123 0 -195 76l39 54q25 -29 68.5 -49t90.5 -20q54 0 84 23t30 60q0 32 -31 50.5t-74.5 28t-87.5 22t-75 43t-31 80.5q0 59 48.5 99t131.5 40q109 0 179 -70l-35 -52q-51 61 -144 61q-49 0 -78 -21.5t-29 -54.5q0 -29 31 -45.5t74.5 -26t87.5 -22.5t75 -45.5 t31 -84.5q0 -64 -50 -105t-140 -41z" />
<glyph unicode="&#x456;" horiz-adv-x="225" d="M112 552q-20 0 -35 14.5t-15 35.5t15 36t35 15q21 0 36 -15t15 -36t-15 -35.5t-36 -14.5zM150 0h-75v483h75v-483z" />
<glyph unicode="&#x457;" horiz-adv-x="225" d="M263 604q0 -19 -14 -33t-33 -14t-33 14t-14 33t14 32.5t33 13.5t33 -13.5t14 -32.5zM56 604q0 -19 -13.5 -33t-32.5 -14q-20 0 -33.5 13.5t-13.5 33.5q0 19 14 32.5t33 13.5t32.5 -13.5t13.5 -32.5zM150 0h-75v483h75v-483z" />
<glyph unicode="&#x458;" horiz-adv-x="225" d="M112 552q-20 0 -35 14.5t-15 35.5t15 36t35 15q21 0 36 -15t15 -36t-15 -35.5t-36 -14.5zM7 -196q-59 0 -106 36l27 57q31 -31 69 -31q36 0 57 21.5t21 65.5v530h75v-530q0 -71 -37 -110t-106 -39z" />
<glyph unicode="&#x459;" horiz-adv-x="849" d="M18 -12v62q34 0 56 45t36 150l31 238h336v-187h180q72 0 112.5 -42.5t40.5 -105.5t-40.5 -105.5t-112.5 -42.5h-255v417h-195l-22 -181q-16 -133 -56 -190.5t-111 -57.5zM650 230h-173v-164h173q40 0 61.5 22.5t21.5 59.5q0 36 -22 59t-61 23z" />
<glyph unicode="&#x45a;" horiz-adv-x="849" d="M150 0h-75v483h75v-201h252v201h75v-201h188q68 0 106.5 -40.5t38.5 -101.5q0 -59 -38.5 -99.5t-106.5 -40.5h-263v216h-252v-216zM657 216h-180v-150h180q36 0 56 20.5t20 53.5q0 34 -20 55t-56 21z" />
<glyph unicode="&#x45b;" horiz-adv-x="554" d="M308 535h-156v-122q28 33 75 57.5t98 24.5q154 0 154 -154v-341h-75v318q0 60 -28 85t-81 25q-41 0 -80.5 -22t-62.5 -53v-353h-75v535h-68v48h68v84h75v-84h156v-48z" />
<glyph unicode="&#x45c;" horiz-adv-x="514" d="M428 700l-169 -144h-57l148 144h78zM500 0h-96l-174 217l-80 -79v-138h-75v483h75v-257l254 257h95l-214 -219z" />
<glyph unicode="&#x45e;" horiz-adv-x="490" d="M48 -189l12 68q18 -8 41 -8q26 0 43 11t29 40l32 73l-202 488h81l161 -396l160 396h82l-242 -581q-40 -96 -142 -98q-30 0 -55 7zM421 626q-65 -88 -175 -88q-109 0 -176 88l37 32q52 -72 139 -72q88 0 138 72z" />
<glyph unicode="&#x45f;" horiz-adv-x="552" d="M239 -126v126h-164v483h75v-417h252v417h75v-483h-163v-126h-75z" />
<glyph unicode="&#x490;" horiz-adv-x="550" d="M161 593v-593h-83v667h354v123h83v-197h-354z" />
<glyph unicode="&#x491;" horiz-adv-x="436" d="M150 417v-417h-75v483h263v126h75v-192h-263z" />
<glyph unicode="&#x2000;" horiz-adv-x="433" />
<glyph unicode="&#x2001;" horiz-adv-x="867" />
<glyph unicode="&#x2002;" horiz-adv-x="433" />
<glyph unicode="&#x2003;" horiz-adv-x="867" />
<glyph unicode="&#x2004;" horiz-adv-x="289" />
<glyph unicode="&#x2005;" horiz-adv-x="216" />
<glyph unicode="&#x2006;" horiz-adv-x="144" />
<glyph unicode="&#x2007;" horiz-adv-x="144" />
<glyph unicode="&#x2008;" horiz-adv-x="108" />
<glyph unicode="&#x2009;" horiz-adv-x="173" />
<glyph unicode="&#x200a;" horiz-adv-x="48" />
<glyph unicode="&#x2010;" horiz-adv-x="300" d="M270 209h-240v66h240v-66z" />
<glyph unicode="&#x2011;" horiz-adv-x="300" d="M270 209h-240v66h240v-66z" />
<glyph unicode="&#x2012;" horiz-adv-x="300" d="M270 209h-240v66h240v-66z" />
<glyph unicode="&#x2013;" horiz-adv-x="593" d="M563 209h-533v66h533v-66z" />
<glyph unicode="&#x2014;" horiz-adv-x="833" d="M803 209h-773v66h773v-66z" />
<glyph unicode="&#x2018;" d="M47 527q0 44 22.5 84t58.5 66l37 -30q-24 -16 -42.5 -42.5t-21.5 -50.5q1 0 6 0.5t7 0.5q21 0 35 -14.5t14 -36.5t-15.5 -37.5t-37.5 -15.5q-26 0 -44.5 20.5t-18.5 55.5z" />
<glyph unicode="&#x2019;" d="M176 601q0 -44 -23 -84.5t-59 -66.5l-37 31q24 16 43 42.5t22 50.5q-4 -2 -14 -2q-21 0 -34.5 14.5t-13.5 36.5t15.5 38t37.5 16q26 0 44.5 -20.5t18.5 -55.5z" />
<glyph unicode="&#x201a;" d="M176 24q0 -44 -23 -84.5t-59 -66.5l-37 31q25 16 43.5 42.5t21.5 50.5q-4 -2 -14 -2q-21 0 -34.5 14.5t-13.5 36.5t15.5 38t37.5 16q26 0 44.5 -20.5t18.5 -55.5z" />
<glyph unicode="&#x201c;" horiz-adv-x="390" d="M54 527q0 44 22.5 84t58.5 66l37 -30q-24 -16 -43 -42.5t-21 -50.5h5q5 1 8 1q21 0 34.5 -14.5t13.5 -36.5t-15.5 -37.5t-37.5 -15.5q-26 0 -44 20.5t-18 55.5zM214 527q0 44 22.5 84t58.5 66l37 -30q-24 -16 -42.5 -42.5t-21.5 -50.5h5q5 1 8 1q21 0 35 -14.5t14 -36.5 t-16 -37.5t-38 -15.5q-26 0 -44 20.5t-18 55.5z" />
<glyph unicode="&#x201d;" horiz-adv-x="390" d="M336 601q0 -44 -23 -84.5t-58 -66.5l-37 31q24 16 42.5 42.5t21.5 50.5q-4 -2 -13 -2q-21 0 -35 14.5t-14 36.5t15.5 38t37.5 16q26 0 44.5 -20.5t18.5 -55.5zM176 601q0 -44 -23 -84.5t-59 -66.5l-37 31q24 16 43 42.5t22 50.5q-4 -2 -14 -2q-21 0 -34.5 14.5 t-13.5 36.5t15.5 38t37.5 16q26 0 44.5 -20.5t18.5 -55.5z" />
<glyph unicode="&#x201e;" horiz-adv-x="390" d="M176 24q0 -44 -23 -84.5t-59 -66.5l-37 31q25 16 43.5 42.5t21.5 50.5q-4 -2 -14 -2q-21 0 -34.5 14.5t-13.5 36.5t15.5 38t37.5 16q26 0 44.5 -20.5t18.5 -55.5zM336 24q0 -44 -23 -84.5t-58 -66.5l-37 31q24 16 42.5 42.5t21.5 50.5q-4 -2 -13 -2q-21 0 -35 14.5 t-14 36.5t15.5 38t37.5 16q26 0 44.5 -20.5t18.5 -55.5z" />
<glyph unicode="&#x2022;" horiz-adv-x="358" d="M288 242q0 -44 -32 -75.5t-76 -31.5t-76 31.5t-32 75.5t32 76t76 32t76 -32t32 -76z" />
<glyph unicode="&#x2026;" horiz-adv-x="690" d="M169 45q0 -22 -16.5 -38.5t-38.5 -16.5t-38 16.5t-16 38.5q0 23 16 39t38 16t38.5 -16t16.5 -39zM400 45q0 -22 -17 -38.5t-39 -16.5t-38 16.5t-16 38.5q0 23 16 39t38 16q23 0 39.5 -16.5t16.5 -38.5zM630 45q0 -22 -16.5 -38.5t-38.5 -16.5t-38.5 16.5t-16.5 38.5 q0 23 16 39t39 16t39 -16t16 -39z" />
<glyph unicode="&#x202f;" horiz-adv-x="173" />
<glyph unicode="&#x2039;" horiz-adv-x="295" d="M265 63h-75l-160 180l160 177h75l-160 -177z" />
<glyph unicode="&#x203a;" horiz-adv-x="295" d="M265 243l-160 -180h-75l160 180l-160 177h75z" />
<glyph unicode="&#x205f;" horiz-adv-x="216" />
<glyph unicode="&#x20ac;" horiz-adv-x="695" d="M415 -12q-121 0 -211.5 67.5t-119.5 181.5h-53v52h43q-2 28 -2 44t2 46h-43v52h53q30 112 120.5 179.5t210.5 67.5q160 0 253 -132l-70 -39q-29 43 -78 70t-105 27q-85 0 -150 -47t-92 -126h303v-52h-315q-3 -23 -3 -46t3 -44h315v-52h-303q26 -80 91.5 -127.5 t150.5 -47.5q56 0 105 26.5t78 70.5l71 -39q-97 -132 -254 -132z" />
<glyph unicode="&#x2122;" horiz-adv-x="454" d="M419 447h-28v182l-75 -182h-8l-75 182v-182h-28v220h43l64 -160l64 160h43v-220zM169 641h-62v-194h-28v194h-62v26h152v-26z" />
<glyph unicode="&#x25fc;" horiz-adv-x="485" d="M0 485h485v-485h-485v485z" />
<hkern g1="A,Acircumflex,Abreve,uni0402,uni0409,uni040A,uni040B,uni0410,uni042A,uni042C" 	g2="question" 	k="77" />
<hkern g1="A,Acircumflex,Abreve,uni0402,uni0409,uni040A,uni040B,uni0410,uni042A,uni042C" 	g2="quotedbl,quotesingle,registered,quoteleft,quoteright,quotedblleft,quotedblright,trademark" 	k="97" />
<hkern g1="A,Acircumflex,Abreve,uni0402,uni0409,uni040A,uni040B,uni0410,uni042A,uni042C" 	g2="uni0442,uni044A" 	k="37" />
<hkern g1="A,Acircumflex,Abreve,uni0402,uni0409,uni040A,uni040B,uni0410,uni042A,uni042C" 	g2="C,G,O,Q,Oslashacute,uni0404,uni041E,uni0421,uni0424" 	k="37" />
<hkern g1="A,Acircumflex,Abreve,uni0402,uni0409,uni040A,uni040B,uni0410,uni042A,uni042C" 	g2="J,uni0408" 	k="-9" />
<hkern g1="A,Acircumflex,Abreve,uni0402,uni0409,uni040A,uni040B,uni0410,uni042A,uni042C" 	g2="asterisk" 	k="101" />
<hkern g1="A,Acircumflex,Abreve,uni0402,uni0409,uni040A,uni040B,uni0410,uni042A,uni042C" 	g2="S,Scedilla,uni0218,uni0405,uni0417" 	k="14" />
<hkern g1="A,Acircumflex,Abreve,uni0402,uni0409,uni040A,uni040B,uni0410,uni042A,uni042C" 	g2="U,Uhorn" 	k="26" />
<hkern g1="A,Acircumflex,Abreve,uni0402,uni0409,uni040A,uni040B,uni0410,uni042A,uni042C" 	g2="T,uni0162,uni021A,uni0402,uni040B,uni0422,uni0427,uni042A" 	k="67" />
<hkern g1="A,Acircumflex,Abreve,uni0402,uni0409,uni040A,uni040B,uni0410,uni042A,uni042C" 	g2="W" 	k="47" />
<hkern g1="A,Acircumflex,Abreve,uni0402,uni0409,uni040A,uni040B,uni0410,uni042A,uni042C" 	g2="V" 	k="54" />
<hkern g1="A,Acircumflex,Abreve,uni0402,uni0409,uni040A,uni040B,uni0410,uni042A,uni042C" 	g2="Y" 	k="63" />
<hkern g1="A,Acircumflex,Abreve,uni0402,uni0409,uni040A,uni040B,uni0410,uni042A,uni042C" 	g2="f" 	k="9" />
<hkern g1="A,Acircumflex,Abreve,uni0402,uni0409,uni040A,uni040B,uni0410,uni042A,uni042C" 	g2="u,uhorn" 	k="12" />
<hkern g1="A,Acircumflex,Abreve,uni0402,uni0409,uni040A,uni040B,uni0410,uni042A,uni042C" 	g2="t,uni0163,uni021B" 	k="11" />
<hkern g1="A,Acircumflex,Abreve,uni0402,uni0409,uni040A,uni040B,uni0410,uni042A,uni042C" 	g2="w,uni0447" 	k="17" />
<hkern g1="A,Acircumflex,Abreve,uni0402,uni0409,uni040A,uni040B,uni0410,uni042A,uni042C" 	g2="v" 	k="20" />
<hkern g1="A,Acircumflex,Abreve,uni0402,uni0409,uni040A,uni040B,uni0410,uni042A,uni042C" 	g2="y,uni0443,uni045E" 	k="20" />
<hkern g1="uni044A,uni044C,uni0459,uni045A" 	g2="question" 	k="43" />
<hkern g1="uni044A,uni044C,uni0459,uni045A" 	g2="quotedbl,quotesingle,registered,quoteleft,quoteright,quotedblleft,quotedblright,trademark" 	k="80" />
<hkern g1="uni044A,uni044C,uni0459,uni045A" 	g2="uni0442,uni044A" 	k="43" />
<hkern g1="uni044A,uni044C,uni0459,uni045A" 	g2="C,G,O,Q,Oslashacute,uni0404,uni041E,uni0421,uni0424" 	k="30" />
<hkern g1="uni044A,uni044C,uni0459,uni045A" 	g2="asterisk" 	k="64" />
<hkern g1="uni044A,uni044C,uni0459,uni045A" 	g2="U,Uhorn" 	k="9" />
<hkern g1="uni044A,uni044C,uni0459,uni045A" 	g2="T,uni0162,uni021A,uni0402,uni040B,uni0422,uni0427,uni042A" 	k="100" />
<hkern g1="uni044A,uni044C,uni0459,uni045A" 	g2="W" 	k="50" />
<hkern g1="uni044A,uni044C,uni0459,uni045A" 	g2="V" 	k="54" />
<hkern g1="uni044A,uni044C,uni0459,uni045A" 	g2="Y" 	k="69" />
<hkern g1="uni044A,uni044C,uni0459,uni045A" 	g2="bullet" 	k="10" />
<hkern g1="B,uni0411,uni0412,uni0417" 	g2="quotedbl,quotesingle,registered,quoteleft,quoteright,quotedblleft,quotedblright,trademark" 	k="10" />
<hkern g1="B,uni0411,uni0412,uni0417" 	g2="T,uni0162,uni021A,uni0402,uni040B,uni0422,uni0427,uni042A" 	k="17" />
<hkern g1="B,uni0411,uni0412,uni0417" 	g2="W" 	k="10" />
<hkern g1="B,uni0411,uni0412,uni0417" 	g2="V" 	k="13" />
<hkern g1="B,uni0411,uni0412,uni0417" 	g2="Y" 	k="30" />
<hkern g1="B,uni0411,uni0412,uni0417" 	g2="uni0434,uni043B,uni0459" 	k="10" />
<hkern g1="uni0432,uni0437" 	g2="question" 	k="43" />
<hkern g1="uni0432,uni0437" 	g2="T,uni0162,uni021A,uni0402,uni040B,uni0422,uni0427,uni042A" 	k="56" />
<hkern g1="uni0432,uni0437" 	g2="V" 	k="20" />
<hkern g1="uni0432,uni0437" 	g2="Y" 	k="40" />
<hkern g1="C,uni0404,uni0421" 	g2="question" 	k="3" />
<hkern g1="C,uni0404,uni0421" 	g2="W" 	k="3" />
<hkern g1="C,uni0404,uni0421" 	g2="V" 	k="2" />
<hkern g1="C,uni0404,uni0421" 	g2="Y" 	k="16" />
<hkern g1="C,uni0404,uni0421" 	g2="uni0434,uni043B,uni0459" 	k="3" />
<hkern g1="C,uni0404,uni0421" 	g2="A,Acircumflex,Abreve,AEacute,uni0409,uni0410,uni0414,uni041B" 	k="3" />
<hkern g1="D,O,Q,Ohorn,Oslashacute,uni041E,uni0424,uni042D,uni042E" 	g2="question" 	k="16" />
<hkern g1="D,O,Q,Ohorn,Oslashacute,uni041E,uni0424,uni042D,uni042E" 	g2="quotedbl,quotesingle,registered,quoteleft,quoteright,quotedblleft,quotedblright,trademark" 	k="10" />
<hkern g1="D,O,Q,Ohorn,Oslashacute,uni041E,uni0424,uni042D,uni042E" 	g2="J,uni0408" 	k="20" />
<hkern g1="D,O,Q,Ohorn,Oslashacute,uni041E,uni0424,uni042D,uni042E" 	g2="T,uni0162,uni021A,uni0402,uni040B,uni0422,uni0427,uni042A" 	k="27" />
<hkern g1="D,O,Q,Ohorn,Oslashacute,uni041E,uni0424,uni042D,uni042E" 	g2="W" 	k="20" />
<hkern g1="D,O,Q,Ohorn,Oslashacute,uni041E,uni0424,uni042D,uni042E" 	g2="V" 	k="20" />
<hkern g1="D,O,Q,Ohorn,Oslashacute,uni041E,uni0424,uni042D,uni042E" 	g2="Y" 	k="40" />
<hkern g1="D,O,Q,Ohorn,Oslashacute,uni041E,uni0424,uni042D,uni042E" 	g2="uni0434,uni043B,uni0459" 	k="30" />
<hkern g1="D,O,Q,Ohorn,Oslashacute,uni041E,uni0424,uni042D,uni042E" 	g2="A,Acircumflex,Abreve,AEacute,uni0409,uni0410,uni0414,uni041B" 	k="37" />
<hkern g1="D,O,Q,Ohorn,Oslashacute,uni041E,uni0424,uni042D,uni042E" 	g2="Z" 	k="17" />
<hkern g1="D,O,Q,Ohorn,Oslashacute,uni041E,uni0424,uni042D,uni042E" 	g2="comma,period,quotesinglbase,quotedblbase,ellipsis" 	k="27" />
<hkern g1="D,O,Q,Ohorn,Oslashacute,uni041E,uni0424,uni042D,uni042E" 	g2="X,uni040E,uni0416,uni0423,uni0425" 	k="30" />
<hkern g1="F" 	g2="J,uni0408" 	k="59" />
<hkern g1="F" 	g2="uni0434,uni043B,uni0459" 	k="39" />
<hkern g1="F" 	g2="A,Acircumflex,Abreve,AEacute,uni0409,uni0410,uni0414,uni041B" 	k="36" />
<hkern g1="F" 	g2="comma,period,quotesinglbase,quotedblbase,ellipsis" 	k="50" />
<hkern g1="F" 	g2="ampersand" 	k="6" />
<hkern g1="G" 	g2="question" 	k="6" />
<hkern g1="G" 	g2="T,uni0162,uni021A,uni0402,uni040B,uni0422,uni0427,uni042A" 	k="3" />
<hkern g1="G" 	g2="W" 	k="3" />
<hkern g1="G" 	g2="V" 	k="6" />
<hkern g1="G" 	g2="Y" 	k="9" />
<hkern g1="G" 	g2="A,Acircumflex,Abreve,AEacute,uni0409,uni0410,uni0414,uni041B" 	k="3" />
<hkern g1="G" 	g2="X,uni040E,uni0416,uni0423,uni0425" 	k="3" />
<hkern g1="K,uni040C,uni0416,uni041A" 	g2="uni0442,uni044A" 	k="53" />
<hkern g1="K,uni040C,uni0416,uni041A" 	g2="C,G,O,Q,Oslashacute,uni0404,uni041E,uni0421,uni0424" 	k="54" />
<hkern g1="K,uni040C,uni0416,uni041A" 	g2="Y" 	k="21" />
<hkern g1="K,uni040C,uni0416,uni041A" 	g2="f" 	k="26" />
<hkern g1="K,uni040C,uni0416,uni041A" 	g2="u,uhorn" 	k="20" />
<hkern g1="K,uni040C,uni0416,uni041A" 	g2="t,uni0163,uni021B" 	k="39" />
<hkern g1="K,uni040C,uni0416,uni041A" 	g2="w,uni0447" 	k="40" />
<hkern g1="K,uni040C,uni0416,uni041A" 	g2="v" 	k="60" />
<hkern g1="K,uni040C,uni0416,uni041A" 	g2="y,uni0443,uni045E" 	k="60" />
<hkern g1="K,uni040C,uni0416,uni041A" 	g2="hyphen,endash,emdash" 	k="50" />
<hkern g1="K,uni040C,uni0416,uni041A" 	g2="a,acircumflex,abreve,uni0430" 	k="17" />
<hkern g1="K,uni040C,uni0416,uni041A" 	g2="c,d,e,g,o,q,cent,ohorn,oslashacute,uni0431,uni0435,uni043E,uni0441,uni0444,uni0451,uni0454" 	k="34" />
<hkern g1="K,uni040C,uni0416,uni041A" 	g2="x,uni0436,uni0445" 	k="26" />
<hkern g1="L" 	g2="question" 	k="114" />
<hkern g1="L" 	g2="quotedbl,quotesingle,registered,quoteleft,quoteright,quotedblleft,quotedblright,trademark" 	k="122" />
<hkern g1="L" 	g2="uni0442,uni044A" 	k="77" />
<hkern g1="L" 	g2="C,G,O,Q,Oslashacute,uni0404,uni041E,uni0421,uni0424" 	k="34" />
<hkern g1="L" 	g2="asterisk" 	k="174" />
<hkern g1="L" 	g2="U,Uhorn" 	k="27" />
<hkern g1="L" 	g2="T,uni0162,uni021A,uni0402,uni040B,uni0422,uni0427,uni042A" 	k="100" />
<hkern g1="L" 	g2="W" 	k="66" />
<hkern g1="L" 	g2="V" 	k="90" />
<hkern g1="L" 	g2="Y" 	k="123" />
<hkern g1="L" 	g2="u,uhorn" 	k="14" />
<hkern g1="L" 	g2="t,uni0163,uni021B" 	k="33" />
<hkern g1="L" 	g2="w,uni0447" 	k="37" />
<hkern g1="L" 	g2="v" 	k="57" />
<hkern g1="L" 	g2="y,uni0443,uni045E" 	k="57" />
<hkern g1="L" 	g2="ampersand" 	k="7" />
<hkern g1="L" 	g2="a,acircumflex,abreve,uni0430" 	k="14" />
<hkern g1="L" 	g2="c,d,e,g,o,q,cent,ohorn,oslashacute,uni0431,uni0435,uni043E,uni0441,uni0444,uni0451,uni0454" 	k="21" />
<hkern g1="P,uni0420" 	g2="J,uni0408" 	k="109" />
<hkern g1="P,uni0420" 	g2="Y" 	k="3" />
<hkern g1="P,uni0420" 	g2="uni0434,uni043B,uni0459" 	k="80" />
<hkern g1="P,uni0420" 	g2="A,Acircumflex,Abreve,AEacute,uni0409,uni0410,uni0414,uni041B" 	k="77" />
<hkern g1="P,uni0420" 	g2="comma,period,quotesinglbase,quotedblbase,ellipsis" 	k="94" />
<hkern g1="P,uni0420" 	g2="X,uni040E,uni0416,uni0423,uni0425" 	k="9" />
<hkern g1="P,uni0420" 	g2="ampersand" 	k="26" />
<hkern g1="P,uni0420" 	g2="hyphen,endash,emdash" 	k="34" />
<hkern g1="P,uni0420" 	g2="a,acircumflex,abreve,uni0430" 	k="20" />
<hkern g1="P,uni0420" 	g2="c,d,e,g,o,q,cent,ohorn,oslashacute,uni0431,uni0435,uni043E,uni0441,uni0444,uni0451,uni0454" 	k="13" />
<hkern g1="R" 	g2="quotedbl,quotesingle,registered,quoteleft,quoteright,quotedblleft,quotedblright,trademark" 	k="3" />
<hkern g1="R" 	g2="T,uni0162,uni021A,uni0402,uni040B,uni0422,uni0427,uni042A" 	k="10" />
<hkern g1="R" 	g2="V" 	k="10" />
<hkern g1="R" 	g2="Y" 	k="16" />
<hkern g1="R" 	g2="ampersand" 	k="3" />
<hkern g1="R" 	g2="a,acircumflex,abreve,uni0430" 	k="20" />
<hkern g1="R" 	g2="c,d,e,g,o,q,cent,ohorn,oslashacute,uni0431,uni0435,uni043E,uni0441,uni0444,uni0451,uni0454" 	k="30" />
<hkern g1="R" 	g2="s,scedilla,uni0219,uni0437,uni044D,uni0455" 	k="6" />
<hkern g1="S,Scedilla,uni0218,uni0405" 	g2="uni0442,uni044A" 	k="6" />
<hkern g1="S,Scedilla,uni0218,uni0405" 	g2="T,uni0162,uni021A,uni0402,uni040B,uni0422,uni0427,uni042A" 	k="6" />
<hkern g1="S,Scedilla,uni0218,uni0405" 	g2="Y" 	k="10" />
<hkern g1="S,Scedilla,uni0218,uni0405" 	g2="t,uni0163,uni021B" 	k="17" />
<hkern g1="S,Scedilla,uni0218,uni0405" 	g2="w,uni0447" 	k="3" />
<hkern g1="S,Scedilla,uni0218,uni0405" 	g2="v" 	k="6" />
<hkern g1="S,Scedilla,uni0218,uni0405" 	g2="y,uni0443,uni045E" 	k="6" />
<hkern g1="S,Scedilla,uni0218,uni0405" 	g2="A,Acircumflex,Abreve,AEacute,uni0409,uni0410,uni0414,uni041B" 	k="10" />
<hkern g1="S,Scedilla,uni0218,uni0405" 	g2="x,uni0436,uni0445" 	k="13" />
<hkern g1="T,uni0162,uni021A,uni0403,uni0413,uni0422,uni0490" 	g2="uni0442,uni044A" 	k="28" />
<hkern g1="T,uni0162,uni021A,uni0403,uni0413,uni0422,uni0490" 	g2="C,G,O,Q,Oslashacute,uni0404,uni041E,uni0421,uni0424" 	k="27" />
<hkern g1="T,uni0162,uni021A,uni0403,uni0413,uni0422,uni0490" 	g2="J,uni0408" 	k="83" />
<hkern g1="T,uni0162,uni021A,uni0403,uni0413,uni0422,uni0490" 	g2="S,Scedilla,uni0218,uni0405,uni0417" 	k="3" />
<hkern g1="T,uni0162,uni021A,uni0403,uni0413,uni0422,uni0490" 	g2="f" 	k="31" />
<hkern g1="T,uni0162,uni021A,uni0403,uni0413,uni0422,uni0490" 	g2="u,uhorn" 	k="85" />
<hkern g1="T,uni0162,uni021A,uni0403,uni0413,uni0422,uni0490" 	g2="w,uni0447" 	k="56" />
<hkern g1="T,uni0162,uni021A,uni0403,uni0413,uni0422,uni0490" 	g2="v" 	k="56" />
<hkern g1="T,uni0162,uni021A,uni0403,uni0413,uni0422,uni0490" 	g2="y,uni0443,uni045E" 	k="56" />
<hkern g1="T,uni0162,uni021A,uni0403,uni0413,uni0422,uni0490" 	g2="uni0434,uni043B,uni0459" 	k="100" />
<hkern g1="T,uni0162,uni021A,uni0403,uni0413,uni0422,uni0490" 	g2="A,Acircumflex,Abreve,AEacute,uni0409,uni0410,uni0414,uni041B" 	k="67" />
<hkern g1="T,uni0162,uni021A,uni0403,uni0413,uni0422,uni0490" 	g2="comma,period,quotesinglbase,quotedblbase,ellipsis" 	k="93" />
<hkern g1="T,uni0162,uni021A,uni0403,uni0413,uni0422,uni0490" 	g2="ampersand" 	k="57" />
<hkern g1="T,uni0162,uni021A,uni0403,uni0413,uni0422,uni0490" 	g2="hyphen,endash,emdash" 	k="60" />
<hkern g1="T,uni0162,uni021A,uni0403,uni0413,uni0422,uni0490" 	g2="a,acircumflex,abreve,uni0430" 	k="95" />
<hkern g1="T,uni0162,uni021A,uni0403,uni0413,uni0422,uni0490" 	g2="c,d,e,g,o,q,cent,ohorn,oslashacute,uni0431,uni0435,uni043E,uni0441,uni0444,uni0451,uni0454" 	k="115" />
<hkern g1="T,uni0162,uni021A,uni0403,uni0413,uni0422,uni0490" 	g2="x,uni0436,uni0445" 	k="66" />
<hkern g1="T,uni0162,uni021A,uni0403,uni0413,uni0422,uni0490" 	g2="s,scedilla,uni0219,uni0437,uni044D,uni0455" 	k="91" />
<hkern g1="T,uni0162,uni021A,uni0403,uni0413,uni0422,uni0490" 	g2="colon,semicolon" 	k="50" />
<hkern g1="T,uni0162,uni021A,uni0403,uni0413,uni0422,uni0490" 	g2="m,n,p,r,z,uni0432,uni0438,uni043A,uni043C,uni043D,uni043F,uni0440,uni0446,uni0448,uni0449,uni044B,uni044C,uni044E,uni044F,uni0453,uni045A,uni045F,uni0491" 	k="85" />
<hkern g1="uni0433,uni0442,uni0453,uni0491" 	g2="T,uni0162,uni021A,uni0402,uni040B,uni0422,uni0427,uni042A" 	k="28" />
<hkern g1="uni0433,uni0442,uni0453,uni0491" 	g2="V" 	k="3" />
<hkern g1="uni0433,uni0442,uni0453,uni0491" 	g2="uni0434,uni043B,uni0459" 	k="43" />
<hkern g1="uni0433,uni0442,uni0453,uni0491" 	g2="A,Acircumflex,Abreve,AEacute,uni0409,uni0410,uni0414,uni041B" 	k="37" />
<hkern g1="uni0433,uni0442,uni0453,uni0491" 	g2="comma,period,quotesinglbase,quotedblbase,ellipsis" 	k="60" />
<hkern g1="uni0433,uni0442,uni0453,uni0491" 	g2="ampersand" 	k="44" />
<hkern g1="J,U,Uhorn,uni0408" 	g2="J,uni0408" 	k="12" />
<hkern g1="J,U,Uhorn,uni0408" 	g2="uni0434,uni043B,uni0459" 	k="9" />
<hkern g1="J,U,Uhorn,uni0408" 	g2="A,Acircumflex,Abreve,AEacute,uni0409,uni0410,uni0414,uni041B" 	k="26" />
<hkern g1="J,U,Uhorn,uni0408" 	g2="comma,period,quotesinglbase,quotedblbase,ellipsis" 	k="30" />
<hkern g1="V,uni040E,uni0423" 	g2="uni0442,uni044A" 	k="3" />
<hkern g1="V,uni040E,uni0423" 	g2="C,G,O,Q,Oslashacute,uni0404,uni041E,uni0421,uni0424" 	k="20" />
<hkern g1="V,uni040E,uni0423" 	g2="J,uni0408" 	k="93" />
<hkern g1="V,uni040E,uni0423" 	g2="f" 	k="23" />
<hkern g1="V,uni040E,uni0423" 	g2="u,uhorn" 	k="42" />
<hkern g1="V,uni040E,uni0423" 	g2="t,uni0163,uni021B" 	k="13" />
<hkern g1="V,uni040E,uni0423" 	g2="w,uni0447" 	k="6" />
<hkern g1="V,uni040E,uni0423" 	g2="v" 	k="13" />
<hkern g1="V,uni040E,uni0423" 	g2="y,uni0443,uni045E" 	k="6" />
<hkern g1="V,uni040E,uni0423" 	g2="uni0434,uni043B,uni0459" 	k="54" />
<hkern g1="V,uni040E,uni0423" 	g2="A,Acircumflex,Abreve,AEacute,uni0409,uni0410,uni0414,uni041B" 	k="54" />
<hkern g1="V,uni040E,uni0423" 	g2="comma,period,quotesinglbase,quotedblbase,ellipsis" 	k="90" />
<hkern g1="V,uni040E,uni0423" 	g2="ampersand" 	k="29" />
<hkern g1="V,uni040E,uni0423" 	g2="hyphen,endash,emdash" 	k="53" />
<hkern g1="V,uni040E,uni0423" 	g2="a,acircumflex,abreve,uni0430" 	k="63" />
<hkern g1="V,uni040E,uni0423" 	g2="c,d,e,g,o,q,cent,ohorn,oslashacute,uni0431,uni0435,uni043E,uni0441,uni0444,uni0451,uni0454" 	k="60" />
<hkern g1="V,uni040E,uni0423" 	g2="x,uni0436,uni0445" 	k="23" />
<hkern g1="V,uni040E,uni0423" 	g2="s,scedilla,uni0219,uni0437,uni044D,uni0455" 	k="39" />
<hkern g1="V,uni040E,uni0423" 	g2="m,n,p,r,z,uni0432,uni0438,uni043A,uni043C,uni043D,uni043F,uni0440,uni0446,uni0448,uni0449,uni044B,uni044C,uni044E,uni044F,uni0453,uni045A,uni045F,uni0491" 	k="42" />
<hkern g1="W" 	g2="C,G,O,Q,Oslashacute,uni0404,uni041E,uni0421,uni0424" 	k="20" />
<hkern g1="W" 	g2="J,uni0408" 	k="38" />
<hkern g1="W" 	g2="f" 	k="13" />
<hkern g1="W" 	g2="u,uhorn" 	k="30" />
<hkern g1="W" 	g2="t,uni0163,uni021B" 	k="13" />
<hkern g1="W" 	g2="v" 	k="3" />
<hkern g1="W" 	g2="y,uni0443,uni045E" 	k="3" />
<hkern g1="W" 	g2="uni0434,uni043B,uni0459" 	k="50" />
<hkern g1="W" 	g2="A,Acircumflex,Abreve,AEacute,uni0409,uni0410,uni0414,uni041B" 	k="47" />
<hkern g1="W" 	g2="comma,period,quotesinglbase,quotedblbase,ellipsis" 	k="67" />
<hkern g1="W" 	g2="ampersand" 	k="20" />
<hkern g1="W" 	g2="hyphen,endash,emdash" 	k="33" />
<hkern g1="W" 	g2="a,acircumflex,abreve,uni0430" 	k="40" />
<hkern g1="W" 	g2="c,d,e,g,o,q,cent,ohorn,oslashacute,uni0431,uni0435,uni043E,uni0441,uni0444,uni0451,uni0454" 	k="40" />
<hkern g1="W" 	g2="x,uni0436,uni0445" 	k="23" />
<hkern g1="W" 	g2="s,scedilla,uni0219,uni0437,uni044D,uni0455" 	k="19" />
<hkern g1="W" 	g2="m,n,p,r,z,uni0432,uni0438,uni043A,uni043C,uni043D,uni043F,uni0440,uni0446,uni0448,uni0449,uni044B,uni044C,uni044E,uni044F,uni0453,uni045A,uni045F,uni0491" 	k="30" />
<hkern g1="Y" 	g2="C,G,O,Q,Oslashacute,uni0404,uni041E,uni0421,uni0424" 	k="40" />
<hkern g1="Y" 	g2="J,uni0408" 	k="113" />
<hkern g1="Y" 	g2="S,Scedilla,uni0218,uni0405,uni0417" 	k="20" />
<hkern g1="Y" 	g2="f" 	k="49" />
<hkern g1="Y" 	g2="u,uhorn" 	k="90" />
<hkern g1="Y" 	g2="t,uni0163,uni021B" 	k="26" />
<hkern g1="Y" 	g2="w,uni0447" 	k="60" />
<hkern g1="Y" 	g2="v" 	k="60" />
<hkern g1="Y" 	g2="y,uni0443,uni045E" 	k="60" />
<hkern g1="Y" 	g2="uni0434,uni043B,uni0459" 	k="69" />
<hkern g1="Y" 	g2="A,Acircumflex,Abreve,AEacute,uni0409,uni0410,uni0414,uni041B" 	k="63" />
<hkern g1="Y" 	g2="comma,period,quotesinglbase,quotedblbase,ellipsis" 	k="90" />
<hkern g1="Y" 	g2="ampersand" 	k="60" />
<hkern g1="Y" 	g2="hyphen,endash,emdash" 	k="116" />
<hkern g1="Y" 	g2="a,acircumflex,abreve,uni0430" 	k="121" />
<hkern g1="Y" 	g2="c,d,e,g,o,q,cent,ohorn,oslashacute,uni0431,uni0435,uni043E,uni0441,uni0444,uni0451,uni0454" 	k="127" />
<hkern g1="Y" 	g2="x,uni0436,uni0445" 	k="73" />
<hkern g1="Y" 	g2="s,scedilla,uni0219,uni0437,uni044D,uni0455" 	k="100" />
<hkern g1="Y" 	g2="colon,semicolon" 	k="59" />
<hkern g1="Y" 	g2="m,n,p,r,z,uni0432,uni0438,uni043A,uni043C,uni043D,uni043F,uni0440,uni0446,uni0448,uni0449,uni044B,uni044C,uni044E,uni044F,uni0453,uni045A,uni045F,uni0491" 	k="90" />
<hkern g1="Z" 	g2="C,G,O,Q,Oslashacute,uni0404,uni041E,uni0421,uni0424" 	k="17" />
<hkern g1="a,h,m,n,acircumflex,abreve,uni0430" 	g2="question" 	k="36" />
<hkern g1="a,h,m,n,acircumflex,abreve,uni0430" 	g2="quotedbl,quotesingle,registered,quoteleft,quoteright,quotedblleft,quotedblright,trademark" 	k="6" />
<hkern g1="a,h,m,n,acircumflex,abreve,uni0430" 	g2="T,uni0162,uni021A,uni0402,uni040B,uni0422,uni0427,uni042A" 	k="108" />
<hkern g1="a,h,m,n,acircumflex,abreve,uni0430" 	g2="W" 	k="43" />
<hkern g1="a,h,m,n,acircumflex,abreve,uni0430" 	g2="V" 	k="66" />
<hkern g1="a,h,m,n,acircumflex,abreve,uni0430" 	g2="Y" 	k="110" />
<hkern g1="ampersand" 	g2="uni0442,uni044A" 	k="64" />
<hkern g1="ampersand" 	g2="T,uni0162,uni021A,uni0402,uni040B,uni0422,uni0427,uni042A" 	k="74" />
<hkern g1="ampersand" 	g2="W" 	k="48" />
<hkern g1="ampersand" 	g2="V" 	k="50" />
<hkern g1="ampersand" 	g2="Y" 	k="91" />
<hkern g1="asterisk" 	g2="J,uni0408" 	k="116" />
<hkern g1="asterisk" 	g2="uni0434,uni043B,uni0459" 	k="64" />
<hkern g1="asterisk" 	g2="A,Acircumflex,Abreve,AEacute,uni0409,uni0410,uni0414,uni041B" 	k="101" />
<hkern g1="b,o,p,ohorn,oslashacute,uni043E,uni0440,uni0444,uni044D,uni044E" 	g2="question" 	k="46" />
<hkern g1="b,o,p,ohorn,oslashacute,uni043E,uni0440,uni0444,uni044D,uni044E" 	g2="quotedbl,quotesingle,registered,quoteleft,quoteright,quotedblleft,quotedblright,trademark" 	k="10" />
<hkern g1="b,o,p,ohorn,oslashacute,uni043E,uni0440,uni0444,uni044D,uni044E" 	g2="T,uni0162,uni021A,uni0402,uni040B,uni0422,uni0427,uni042A" 	k="115" />
<hkern g1="b,o,p,ohorn,oslashacute,uni043E,uni0440,uni0444,uni044D,uni044E" 	g2="W" 	k="40" />
<hkern g1="b,o,p,ohorn,oslashacute,uni043E,uni0440,uni0444,uni044D,uni044E" 	g2="V" 	k="60" />
<hkern g1="b,o,p,ohorn,oslashacute,uni043E,uni0440,uni0444,uni044D,uni044E" 	g2="Y" 	k="124" />
<hkern g1="b,o,p,ohorn,oslashacute,uni043E,uni0440,uni0444,uni044D,uni044E" 	g2="comma,period,quotesinglbase,quotedblbase,ellipsis" 	k="7" />
<hkern g1="b,o,p,ohorn,oslashacute,uni043E,uni0440,uni0444,uni044D,uni044E" 	g2="x,uni0436,uni0445" 	k="37" />
<hkern g1="bullet" 	g2="uni0434,uni043B,uni0459" 	k="10" />
<hkern g1="c,cent,uni0441,uni0454" 	g2="question" 	k="23" />
<hkern g1="c,cent,uni0441,uni0454" 	g2="quotedbl,quotesingle,registered,quoteleft,quoteright,quotedblleft,quotedblright,trademark" 	k="3" />
<hkern g1="c,cent,uni0441,uni0454" 	g2="T,uni0162,uni021A,uni0402,uni040B,uni0422,uni0427,uni042A" 	k="81" />
<hkern g1="c,cent,uni0441,uni0454" 	g2="W" 	k="23" />
<hkern g1="c,cent,uni0441,uni0454" 	g2="V" 	k="36" />
<hkern g1="c,cent,uni0441,uni0454" 	g2="Y" 	k="63" />
<hkern g1="colon,semicolon" 	g2="T,uni0162,uni021A,uni0402,uni040B,uni0422,uni0427,uni042A" 	k="50" />
<hkern g1="colon,semicolon" 	g2="Y" 	k="59" />
<hkern g1="e,aeacute,uni0435,uni0451" 	g2="question" 	k="36" />
<hkern g1="e,aeacute,uni0435,uni0451" 	g2="quotedbl,quotesingle,registered,quoteleft,quoteright,quotedblleft,quotedblright,trademark" 	k="3" />
<hkern g1="e,aeacute,uni0435,uni0451" 	g2="asterisk" 	k="17" />
<hkern g1="e,aeacute,uni0435,uni0451" 	g2="T,uni0162,uni021A,uni0402,uni040B,uni0422,uni0427,uni042A" 	k="101" />
<hkern g1="e,aeacute,uni0435,uni0451" 	g2="W" 	k="40" />
<hkern g1="e,aeacute,uni0435,uni0451" 	g2="V" 	k="53" />
<hkern g1="e,aeacute,uni0435,uni0451" 	g2="Y" 	k="110" />
<hkern g1="e,aeacute,uni0435,uni0451" 	g2="comma,period,quotesinglbase,quotedblbase,ellipsis" 	k="7" />
<hkern g1="f" 	g2="question" 	k="-57" />
<hkern g1="f" 	g2="quotedbl,quotesingle,registered,quoteleft,quoteright,quotedblleft,quotedblright,trademark" 	k="-67" />
<hkern g1="f" 	g2="asterisk" 	k="-67" />
<hkern g1="f" 	g2="S,Scedilla,uni0218,uni0405,uni0417" 	k="-23" />
<hkern g1="f" 	g2="U,Uhorn" 	k="-40" />
<hkern g1="f" 	g2="T,uni0162,uni021A,uni0402,uni040B,uni0422,uni0427,uni042A" 	k="-40" />
<hkern g1="f" 	g2="W" 	k="-63" />
<hkern g1="f" 	g2="V" 	k="-63" />
<hkern g1="f" 	g2="Y" 	k="-56" />
<hkern g1="f" 	g2="Z" 	k="-40" />
<hkern g1="f" 	g2="comma,period,quotesinglbase,quotedblbase,ellipsis" 	k="43" />
<hkern g1="f" 	g2="X,uni040E,uni0416,uni0423,uni0425" 	k="-40" />
<hkern g1="f" 	g2="ampersand" 	k="3" />
<hkern g1="f" 	g2="exclam,B,D,E,F,H,I,K,L,M,N,P,R,Icircumflex" 	k="-40" />
<hkern g1="f" 	g2="parenright,bracketright,braceright" 	k="-74" />
<hkern g1="g,j,q,uni0458" 	g2="question" 	k="23" />
<hkern g1="g,j,q,uni0458" 	g2="T,uni0162,uni021A,uni0402,uni040B,uni0422,uni0427,uni042A" 	k="85" />
<hkern g1="g,j,q,uni0458" 	g2="W" 	k="30" />
<hkern g1="g,j,q,uni0458" 	g2="V" 	k="42" />
<hkern g1="g,j,q,uni0458" 	g2="Y" 	k="90" />
<hkern g1="g,j,q,uni0458" 	g2="j,uni0458" 	k="-46" />
<hkern g1="hyphen,endash,emdash" 	g2="W" 	k="33" />
<hkern g1="hyphen,endash,emdash" 	g2="V" 	k="53" />
<hkern g1="hyphen,endash,emdash" 	g2="Y" 	k="109" />
<hkern g1="hyphen,endash,emdash" 	g2="X,uni040E,uni0416,uni0423,uni0425" 	k="43" />
<hkern g1="k,uni0436,uni043A,uni045C" 	g2="T,uni0162,uni021A,uni0402,uni040B,uni0422,uni0427,uni042A" 	k="69" />
<hkern g1="k,uni0436,uni043A,uni045C" 	g2="W" 	k="23" />
<hkern g1="k,uni0436,uni043A,uni045C" 	g2="V" 	k="23" />
<hkern g1="k,uni0436,uni043A,uni045C" 	g2="Y" 	k="66" />
<hkern g1="k,uni0436,uni043A,uni045C" 	g2="bullet" 	k="27" />
<hkern g1="k,uni0436,uni043A,uni045C" 	g2="hyphen,endash,emdash" 	k="27" />
<hkern g1="k,uni0436,uni043A,uni045C" 	g2="c,d,e,g,o,q,cent,ohorn,oslashacute,uni0431,uni0435,uni043E,uni0441,uni0444,uni0451,uni0454" 	k="3" />
<hkern g1="comma,period,quotesinglbase,quotedblbase,ellipsis" 	g2="quotedbl,quotesingle,registered,quoteleft,quoteright,quotedblleft,quotedblright,trademark" 	k="76" />
<hkern g1="comma,period,quotesinglbase,quotedblbase,ellipsis" 	g2="uni0442,uni044A" 	k="60" />
<hkern g1="comma,period,quotesinglbase,quotedblbase,ellipsis" 	g2="U,Uhorn" 	k="30" />
<hkern g1="comma,period,quotesinglbase,quotedblbase,ellipsis" 	g2="T,uni0162,uni021A,uni0402,uni040B,uni0422,uni0427,uni042A" 	k="93" />
<hkern g1="comma,period,quotesinglbase,quotedblbase,ellipsis" 	g2="W" 	k="67" />
<hkern g1="comma,period,quotesinglbase,quotedblbase,ellipsis" 	g2="V" 	k="87" />
<hkern g1="comma,period,quotesinglbase,quotedblbase,ellipsis" 	g2="Y" 	k="90" />
<hkern g1="comma,period,quotesinglbase,quotedblbase,ellipsis" 	g2="f" 	k="23" />
<hkern g1="comma,period,quotesinglbase,quotedblbase,ellipsis" 	g2="t,uni0163,uni021B" 	k="23" />
<hkern g1="comma,period,quotesinglbase,quotedblbase,ellipsis" 	g2="w,uni0447" 	k="44" />
<hkern g1="comma,period,quotesinglbase,quotedblbase,ellipsis" 	g2="v" 	k="67" />
<hkern g1="comma,period,quotesinglbase,quotedblbase,ellipsis" 	g2="y,uni0443,uni045E" 	k="57" />
<hkern g1="comma,period,quotesinglbase,quotedblbase,ellipsis" 	g2="c,d,e,g,o,q,cent,ohorn,oslashacute,uni0431,uni0435,uni043E,uni0441,uni0444,uni0451,uni0454" 	k="7" />
<hkern g1="comma,period,quotesinglbase,quotedblbase,ellipsis" 	g2="j,uni0458" 	k="-40" />
<hkern g1="comma,period,quotesinglbase,quotedblbase,ellipsis" 	g2="seven" 	k="66" />
<hkern g1="comma,period,quotesinglbase,quotedblbase,ellipsis" 	g2="one" 	k="78" />
<hkern g1="comma,period,quotesinglbase,quotedblbase,ellipsis" 	g2="zero,six" 	k="31" />
<hkern g1="quotedbl,quotesingle,quoteleft,quoteright,quotedblleft,quotedblright" 	g2="C,G,O,Q,Oslashacute,uni0404,uni041E,uni0421,uni0424" 	k="3" />
<hkern g1="quotedbl,quotesingle,quoteleft,quoteright,quotedblleft,quotedblright" 	g2="J,uni0408" 	k="92" />
<hkern g1="quotedbl,quotesingle,quoteleft,quoteright,quotedblleft,quotedblright" 	g2="uni0434,uni043B,uni0459" 	k="80" />
<hkern g1="quotedbl,quotesingle,quoteleft,quoteright,quotedblleft,quotedblright" 	g2="A,Acircumflex,Abreve,AEacute,uni0409,uni0410,uni0414,uni041B" 	k="104" />
<hkern g1="quotedbl,quotesingle,quoteleft,quoteright,quotedblleft,quotedblright" 	g2="comma,period,quotesinglbase,quotedblbase,ellipsis" 	k="76" />
<hkern g1="quotedbl,quotesingle,quoteleft,quoteright,quotedblleft,quotedblright" 	g2="s,scedilla,uni0219,uni0437,uni044D,uni0455" 	k="30" />
<hkern g1="r" 	g2="T,uni0162,uni021A,uni0402,uni040B,uni0422,uni0427,uni042A" 	k="48" />
<hkern g1="r" 	g2="W" 	k="6" />
<hkern g1="r" 	g2="V" 	k="23" />
<hkern g1="r" 	g2="Y" 	k="50" />
<hkern g1="r" 	g2="comma,period,quotesinglbase,quotedblbase,ellipsis" 	k="83" />
<hkern g1="r" 	g2="X,uni040E,uni0416,uni0423,uni0425" 	k="9" />
<hkern g1="s,scedilla,uni0219,uni0455" 	g2="question" 	k="43" />
<hkern g1="s,scedilla,uni0219,uni0455" 	g2="quotedbl,quotesingle,registered,quoteleft,quoteright,quotedblleft,quotedblright,trademark" 	k="20" />
<hkern g1="s,scedilla,uni0219,uni0455" 	g2="T,uni0162,uni021A,uni0402,uni040B,uni0422,uni0427,uni042A" 	k="88" />
<hkern g1="s,scedilla,uni0219,uni0455" 	g2="W" 	k="39" />
<hkern g1="s,scedilla,uni0219,uni0455" 	g2="V" 	k="43" />
<hkern g1="s,scedilla,uni0219,uni0455" 	g2="Y" 	k="93" />
<hkern g1="s,scedilla,uni0219,uni0455" 	g2="X,uni040E,uni0416,uni0423,uni0425" 	k="3" />
<hkern g1="t,uni0163,uni021B" 	g2="T,uni0162,uni021A,uni0402,uni040B,uni0422,uni0427,uni042A" 	k="52" />
<hkern g1="t,uni0163,uni021B" 	g2="W" 	k="13" />
<hkern g1="t,uni0163,uni021B" 	g2="V" 	k="26" />
<hkern g1="t,uni0163,uni021B" 	g2="Y" 	k="33" />
<hkern g1="u,z,uhorn,uni0434,uni0438,uni043B,uni043C,uni043D,uni043F,uni0446,uni0447,uni0448,uni0449,uni044B,uni044F,uni045F" 	g2="question" 	k="23" />
<hkern g1="u,z,uhorn,uni0434,uni0438,uni043B,uni043C,uni043D,uni043F,uni0446,uni0447,uni0448,uni0449,uni044B,uni044F,uni045F" 	g2="T,uni0162,uni021A,uni0402,uni040B,uni0422,uni0427,uni042A" 	k="85" />
<hkern g1="u,z,uhorn,uni0434,uni0438,uni043B,uni043C,uni043D,uni043F,uni0446,uni0447,uni0448,uni0449,uni044B,uni044F,uni045F" 	g2="W" 	k="30" />
<hkern g1="u,z,uhorn,uni0434,uni0438,uni043B,uni043C,uni043D,uni043F,uni0446,uni0447,uni0448,uni0449,uni044B,uni044F,uni045F" 	g2="V" 	k="42" />
<hkern g1="u,z,uhorn,uni0434,uni0438,uni043B,uni043C,uni043D,uni043F,uni0446,uni0447,uni0448,uni0449,uni044B,uni044F,uni045F" 	g2="Y" 	k="90" />
<hkern g1="v" 	g2="T,uni0162,uni021A,uni0402,uni040B,uni0422,uni0427,uni042A" 	k="56" />
<hkern g1="v" 	g2="W" 	k="3" />
<hkern g1="v" 	g2="V" 	k="13" />
<hkern g1="v" 	g2="Y" 	k="60" />
<hkern g1="v" 	g2="A,Acircumflex,Abreve,AEacute,uni0409,uni0410,uni0414,uni041B" 	k="20" />
<hkern g1="v" 	g2="comma,period,quotesinglbase,quotedblbase,ellipsis" 	k="67" />
<hkern g1="v" 	g2="X,uni040E,uni0416,uni0423,uni0425" 	k="37" />
<hkern g1="w" 	g2="T,uni0162,uni021A,uni0402,uni040B,uni0422,uni0427,uni042A" 	k="56" />
<hkern g1="w" 	g2="V" 	k="6" />
<hkern g1="w" 	g2="Y" 	k="60" />
<hkern g1="w" 	g2="A,Acircumflex,Abreve,AEacute,uni0409,uni0410,uni0414,uni041B" 	k="17" />
<hkern g1="w" 	g2="comma,period,quotesinglbase,quotedblbase,ellipsis" 	k="44" />
<hkern g1="w" 	g2="X,uni040E,uni0416,uni0423,uni0425" 	k="44" />
<hkern g1="y,uni0443,uni045E" 	g2="question" 	k="3" />
<hkern g1="y,uni0443,uni045E" 	g2="T,uni0162,uni021A,uni0402,uni040B,uni0422,uni0427,uni042A" 	k="56" />
<hkern g1="y,uni0443,uni045E" 	g2="W" 	k="3" />
<hkern g1="y,uni0443,uni045E" 	g2="V" 	k="6" />
<hkern g1="y,uni0443,uni045E" 	g2="Y" 	k="60" />
<hkern g1="y,uni0443,uni045E" 	g2="A,Acircumflex,Abreve,AEacute,uni0409,uni0410,uni0414,uni041B" 	k="20" />
<hkern g1="y,uni0443,uni045E" 	g2="comma,period,quotesinglbase,quotedblbase,ellipsis" 	k="57" />
<hkern g1="y,uni0443,uni045E" 	g2="X,uni040E,uni0416,uni0423,uni0425" 	k="37" />
<hkern g1="X,uni0425" 	g2="C,G,O,Q,Oslashacute,uni0404,uni041E,uni0421,uni0424" 	k="30" />
<hkern g1="X,uni0425" 	g2="f" 	k="30" />
<hkern g1="X,uni0425" 	g2="t,uni0163,uni021B" 	k="30" />
<hkern g1="X,uni0425" 	g2="w,uni0447" 	k="44" />
<hkern g1="X,uni0425" 	g2="v" 	k="37" />
<hkern g1="X,uni0425" 	g2="y,uni0443,uni045E" 	k="37" />
<hkern g1="X,uni0425" 	g2="hyphen,endash,emdash" 	k="43" />
<hkern g1="zero,nine" 	g2="comma,period,quotesinglbase,quotedblbase,ellipsis" 	k="31" />
<hkern g1="seven" 	g2="comma,period,quotesinglbase,quotedblbase,ellipsis" 	k="97" />
<hkern g1="x,uni0445" 	g2="T,uni0162,uni021A,uni0402,uni040B,uni0422,uni0427,uni042A" 	k="66" />
<hkern g1="x,uni0445" 	g2="W" 	k="23" />
<hkern g1="x,uni0445" 	g2="V" 	k="23" />
<hkern g1="x,uni0445" 	g2="Y" 	k="73" />
<hkern g1="x,uni0445" 	g2="c,d,e,g,o,q,cent,ohorn,oslashacute,uni0431,uni0435,uni043E,uni0441,uni0444,uni0451,uni0454" 	k="37" />
<hkern g1="parenleft,bracketleft,braceleft" 	g2="j,uni0458" 	k="-110" />
</font>
</defs></svg> 