<?xml version="1.0" encoding="iso-8859-1"?>
<svg version="1.1" id="Capa_1" xmlns="http://www.w3.org/2000/svg" xmlns:xlink="http://www.w3.org/1999/xlink" x="0px" y="0px"
	 viewBox="0 0 512 512" style="enable-background:new 0 0 512 512;" xml:space="preserve">
<circle style="fill:#F8BD9A;" cx="165.161" cy="305.243" r="156.903"/>
<circle style="fill:#D2C3E2;" cx="429.419" cy="82.275" r="66.065"/>
<g>
	<path style="fill:#403E3E;" d="M256,495.789l-2.998-1.173C96.941,433.87,0,301.18,0,148.34C0,75.487,59.276,16.211,132.129,16.211
		c56.692,0,105.15,35.881,123.871,86.132c18.721-50.242,67.188-86.132,123.871-86.132C452.724,16.211,512,75.487,512,148.34
		c0,152.84-96.941,285.523-253.002,346.277L256,495.789z M132.129,32.727c-63.752,0-115.613,51.861-115.613,115.613
		c0,144.896,91.681,270.964,239.484,329.711c147.803-58.748,239.484-184.815,239.484-329.711
		c0-63.752-51.861-115.613-115.613-115.613S264.258,84.587,264.258,148.34h-16.516C247.742,84.596,195.881,32.727,132.129,32.727z"
		/>
	<path style="fill:#403E3E;" d="M305.548,148.34h-16.516c0-50.085,40.754-90.839,90.839-90.839v16.516
		C338.886,74.017,305.548,107.363,305.548,148.34z"/>
	<path style="fill:#403E3E;" d="M57.806,148.34H41.29c0-50.085,40.754-90.839,90.839-90.839v16.516
		C91.153,74.017,57.806,107.363,57.806,148.34z"/>
	<rect x="247.742" y="164.856" style="fill:#403E3E;" width="16.516" height="16.516"/>
	<rect x="247.742" y="197.888" style="fill:#403E3E;" width="16.516" height="16.516"/>
	<rect x="247.742" y="230.92" style="fill:#403E3E;" width="16.516" height="16.516"/>
</g>
</svg>
