<?xml version="1.0" encoding="iso-8859-1"?>
<svg xmlns="http://www.w3.org/2000/svg" xmlns:xlink="http://www.w3.org/1999/xlink" version="1.1" id="Layer_1" x="0px" y="0px" viewBox="0 0 512 512" style="enable-background:new 0 0 512 512;" xml:space="preserve">
<circle style="fill:#D2C3E2;" cx="224" cy="184.4" r="152"/>
<circle style="fill:#F8BD9A;" cx="424" cy="416.4" r="64"/>
<g>
	<rect x="304" y="224.4" style="fill:#403E3E;" width="16" height="32"/>
	<path style="fill:#403E3E;" d="M320,224.4h-16v-7.2c0-12,2.4-23.2,6.4-33.6c4-10.4,11.2-20.8,20-28.8l40-40l11.2,11.2l-40,40   c-7.2,7.2-12.8,15.2-16,24c-4,8.8-5.6,18.4-5.6,27.2V224.4z"/>
	<path style="fill:#403E3E;" d="M385.6,160.4c-30.4,0-50.4-20-50.4-50.4c0-50.4,52-78.4,101.6-78.4h26.4V58   C464,108.4,436.8,160.4,385.6,160.4z M437.6,48.4C396,48.4,352,70,352,110.8c0,21.6,12,34.4,34.4,34.4c40,0,62.4-44,62.4-85.6V48.4   H437.6z"/>
	<path style="fill:#403E3E;" d="M320,224.4h-16v-7.2c0-9.6-1.6-18.4-5.6-27.2c-3.2-8.8-9.6-16.8-16-24l-40-40l11.2-11.2l40,40   c8,8,15.2,18.4,20,28.8c4.8,10.4,6.4,22.4,6.4,33.6V224.4z"/>
	<path style="fill:#403E3E;" d="M237.6,160.4c-50.4,0-78.4-52-78.4-101.6V32.4h26.4c48.8,0,101.6,27.2,101.6,78.4   C288,140.4,268,160.4,237.6,160.4z M176,48.4v10.4c0,41.6,21.6,85.6,62.4,85.6c21.6,0,34.4-12,34.4-34.4c0-40-44-62.4-85.6-62.4   H176V48.4z"/>
	<path style="fill:#403E3E;" d="M433.6,339.6c-23.2-46.4-69.6-75.2-121.6-75.2c-40.8,0-79.2,18.4-104.8,50.4l-12-10.4   c28.8-35.2,72-56,117.6-56c57.6,0,109.6,32,136,84.8L433.6,339.6z"/>
	<path style="fill:#403E3E;" d="M232,400.4h-16c0-8.8,3.2-16.8,9.6-22.4c6.4-6.4,14.4-9.6,22.4-9.6h88c4,0,8-1.6,11.2-4.8   s4.8-7.2,4.8-11.2s-1.6-8-4.8-11.2s-7.2-4.8-11.2-4.8h-89.6l-80-32H104v-16h65.6l80,32H336c8.8,0,16.8,3.2,22.4,9.6   s9.6,14.4,9.6,22.4s-3.2,16.8-9.6,22.4s-14.4,9.6-22.4,9.6h-88c-4,0-8,1.6-11.2,4.8S232,396.4,232,400.4z"/>
	<path style="fill:#403E3E;" d="M322.4,480.4h-36l-144-48H104v-16h41.6l144,48h28C467.2,370,468,370,491.2,354   c3.2-2.4,4.8-4.8,4.8-9.6c0-14.4-11.2-16-16-16c-7.2,0.8-46.4,20-100.8,47.2l-1.6,0.8H352v-16h22.4c74.4-37.6,96.8-48,105.6-48   c19.2,0,32,12.8,32,32c0,9.6-4,17.6-12,23.2c-24,16-24,16-176,112L322.4,480.4z"/>
	<polygon style="fill:#403E3E;" points="99.2,480.4 0,480.4 0,464.4 92.8,464.4 96,461.2 96,291.6 92.8,288.4 0,288.4 0,272.4    99.2,272.4 112,285.2 112,467.6  "/>
	<rect x="64" y="416.4" style="fill:#403E3E;" width="16" height="16"/>
	<rect x="64" y="384.4" style="fill:#403E3E;" width="16" height="16"/>
</g>
</svg>
