<?xml version="1.0" encoding="iso-8859-1"?>
<svg version="1.1" id="Capa_1" xmlns="http://www.w3.org/2000/svg" xmlns:xlink="http://www.w3.org/1999/xlink" x="0px" y="0px"
	 viewBox="0 0 512 512" style="enable-background:new 0 0 512 512;" xml:space="preserve">
<circle style="fill:#F8BD9A;" cx="353.524" cy="357.587" r="154.413"/>
<circle style="fill:#D2C3E2;" cx="93.46" cy="105.651" r="65.016"/>
<g>
	<path style="fill:#403E3E;" d="M60.952,503.873c-1.048,0-2.105-0.195-3.113-0.618c-3.031-1.252-5.014-4.226-5.014-7.509v-32.508
		h16.254v12.889l34.889-34.889c1.52-1.528,3.592-2.381,5.746-2.381h300.698v16.254H113.079l-46.381,46.381
		C65.146,503.044,63.065,503.873,60.952,503.873z"/>
	<polygon style="fill:#403E3E;" points="69.079,463.238 52.825,463.238 52.825,455.111 4.063,455.111 4.063,97.524 36.571,97.524
		36.571,113.778 20.317,113.778 20.317,438.857 69.079,438.857 	"/>
	<polygon style="fill:#403E3E;" points="467.302,414.476 451.048,414.476 451.048,390.095 491.683,390.095 491.683,73.143
		507.937,73.143 507.937,406.349 467.302,406.349 	"/>
	<polygon style="fill:#403E3E;" points="394.159,406.349 52.825,406.349 52.825,73.143 69.079,73.143 69.079,390.095
		394.159,390.095 	"/>
	<path style="fill:#403E3E;" d="M459.175,455.111c-2.113,0-4.194-0.829-5.746-2.381l-46.381-46.381h-12.889v-16.254h16.254
		c2.162,0,4.226,0.853,5.746,2.381l34.889,34.889v-12.889h16.254v32.508c0,3.283-1.975,6.258-5.014,7.509
		C461.28,454.916,460.223,455.111,459.175,455.111z"/>
	<path style="fill:#403E3E;" d="M507.937,81.27H52.825V0h455.111V81.27z M69.079,65.016h422.603V16.254H69.079V65.016z"/>
	<rect x="85.333" y="32.508" style="fill:#403E3E;" width="16.254" height="16.254"/>
	<rect x="117.841" y="32.508" style="fill:#403E3E;" width="16.254" height="16.254"/>
	<rect x="150.349" y="32.508" style="fill:#403E3E;" width="16.254" height="16.254"/>
	<rect x="182.857" y="32.508" style="fill:#403E3E;" width="292.571" height="16.254"/>
	<path style="fill:#403E3E;" d="M475.429,178.794H85.333v-81.27h390.095V178.794z M101.587,162.54h357.587v-48.762H101.587V162.54z"
		/>
	<rect x="125.968" y="130.032" style="fill:#403E3E;" width="65.016" height="16.254"/>
	<rect x="207.238" y="130.032" style="fill:#403E3E;" width="65.016" height="16.254"/>
	<rect x="288.508" y="130.032" style="fill:#403E3E;" width="65.016" height="16.254"/>
	<rect x="369.778" y="130.032" style="fill:#403E3E;" width="65.016" height="16.254"/>
	<rect x="85.333" y="227.556" style="fill:#403E3E;" width="186.921" height="16.254"/>
	<rect x="85.333" y="260.064" style="fill:#403E3E;" width="186.921" height="16.254"/>
	<rect x="85.333" y="292.571" style="fill:#403E3E;" width="186.921" height="16.254"/>
	<rect x="85.333" y="325.079" style="fill:#403E3E;" width="186.921" height="16.254"/>
	<rect x="85.333" y="357.587" style="fill:#403E3E;" width="186.921" height="16.254"/>
	<rect x="288.508" y="227.556" style="fill:#403E3E;" width="186.921" height="16.254"/>
	<rect x="288.508" y="260.064" style="fill:#403E3E;" width="186.921" height="16.254"/>
	<rect x="288.508" y="292.571" style="fill:#403E3E;" width="89.397" height="16.254"/>
	<rect x="288.508" y="325.079" style="fill:#403E3E;" width="89.397" height="16.254"/>
	<rect x="288.508" y="357.587" style="fill:#403E3E;" width="89.397" height="16.254"/>
	<rect x="239.746" y="195.048" style="fill:#403E3E;" width="16.254" height="16.254"/>
	<rect x="272.254" y="195.048" style="fill:#403E3E;" width="16.254" height="16.254"/>
	<rect x="304.762" y="195.048" style="fill:#403E3E;" width="16.254" height="16.254"/>
	<path style="fill:#403E3E;" d="M475.429,373.841h-81.27v-81.27h81.27V373.841z M410.413,357.587h48.762v-48.762h-48.762V357.587z"
		/>
</g>
</svg>
