<?xml version="1.0" encoding="iso-8859-1"?>
<svg xmlns="http://www.w3.org/2000/svg" xmlns:xlink="http://www.w3.org/1999/xlink" version="1.1" id="Layer_1" x="0px" y="0px" viewBox="0 0 512 512" style="enable-background:new 0 0 512 512;" xml:space="preserve">
<circle style="fill:#D2C3E2;" cx="256" cy="256" r="152"/>
<circle style="fill:#F8BD9A;" cx="424" cy="448" r="64"/>
<g>
	<path style="fill:#403E3E;" d="M233.6,512l-15.2-68c-24.8-4.8-48-14.4-68.8-28.8l-58.4,37.6l-32-32l37.6-58.4   c-14.4-20.8-24-44-28.8-68.8L0,278.4v-44.8l68-15.2c4.8-24.8,14.4-48,28.8-68.8L59.2,91.2l32-32l58.4,37.6   c20.8-14.4,44-24,68.8-28.8l15.2-68h44.8l15.2,68c24.8,4.8,48,14.4,68.8,28.8l58.4-37.6l32,32l-37.6,58.4   c14.4,20.8,24,44,28.8,68.8l68,15.2v44.8l-68,15.2c-4.8,24.8-14.4,48-28.8,68.8l37.6,58.4l-32,32l-58.4-37.6   c-20.8,14.4-44,24-68.8,28.8l-15.2,68H233.6z M149.6,396l4,3.2c21.6,15.2,46.4,25.6,72,29.6l5.6,0.8l14.4,65.6h19.2l14.4-65.6   l5.6-0.8c26.4-4.8,50.4-14.4,72-29.6l4-3.2l56.8,36l13.6-13.6l-36-56.8l3.2-4c15.2-21.6,25.6-46.4,29.6-72l0.8-5.6l65.6-14.4v-19.2   L428.8,232l-0.8-5.6c-4.8-26.4-14.4-50.4-29.6-72l-3.2-4l36-56.8L417.6,80l-56.8,36l-4-3.2c-21.6-15.2-46.4-25.6-72-29.6l-5.6-0.8   l-14.4-65.6h-19.2l-14.4,65.6l-5.6,0.8c-26.4,4.8-50.4,14.4-72,29.6l-4,3.2L92.8,80L79.2,93.6l36,56.8l-3.2,4   c-15.2,21.6-25.6,46.4-29.6,72l-0.8,5.6L16,246.4v19.2L81.6,280l0.8,5.6c4.8,26.4,14.4,50.4,29.6,72l3.2,4l-36,56.8L92.8,432   L149.6,396z"/>
	<path style="fill:#403E3E;" d="M293.6,392.8L260.8,360h-9.6l-32.8,32.8L184,381.6v-42.4L172.8,328h-42.4l-11.2-34.4l32.8-32.8v-9.6   l-32.8-32.8l11.2-34.4h42.4l11.2-11.2v-42.4l34.4-11.2l32.8,32.8h9.6l32.8-32.8l34.4,11.2v42.4l11.2,11.2h42.4l11.2,34.4L360,251.2   v9.6l32.8,32.8L381.6,328h-42.4L328,339.2v42.4L293.6,392.8z M244.8,344h22.4l31.2,31.2l13.6-4.8v-37.6l20.8-20.8h37.6l4.8-13.6   L344,267.2v-22.4l31.2-31.2l-4.8-13.6h-37.6L312,179.2v-37.6l-13.6-4.8l-31.2,31.2h-22.4l-31.2-31.2l-13.6,4.8v37.6L179.2,200   h-37.6l-4.8,13.6l31.2,31.2v22.4l-31.2,31.2l4.8,13.6h37.6l20.8,20.8v37.6l13.6,4.8L244.8,344z"/>
	<path style="fill:#403E3E;" d="M256,328c-40,0-72-32-72-72s32-72,72-72s72,32,72,72S296,328,256,328z M256,200   c-31.2,0-56,24.8-56,56s24.8,56,56,56s56-24.8,56-56S287.2,200,256,200z"/>
	<path style="fill:#403E3E;" d="M256,288c-17.6,0-32-14.4-32-32s14.4-32,32-32s32,14.4,32,32S273.6,288,256,288z M256,240   c-8.8,0-16,7.2-16,16s7.2,16,16,16s16-7.2,16-16S264.8,240,256,240z"/>
	<rect x="160" y="40" style="fill:#403E3E;" width="16" height="16"/>
	<rect x="336" y="40" style="fill:#403E3E;" width="16" height="16"/>
	<rect x="160" y="456" style="fill:#403E3E;" width="16" height="16"/>
	<rect x="336" y="456" style="fill:#403E3E;" width="16" height="16"/>
	<rect x="456" y="160" style="fill:#403E3E;" width="16" height="16"/>
	<rect x="40" y="160" style="fill:#403E3E;" width="16" height="16"/>
	<rect x="456" y="336" style="fill:#403E3E;" width="16" height="16"/>
	<rect x="40" y="336" style="fill:#403E3E;" width="16" height="16"/>
</g>
</svg>
