<?xml version="1.0" encoding="iso-8859-1"?>
<svg xmlns="http://www.w3.org/2000/svg" xmlns:xlink="http://www.w3.org/1999/xlink" version="1.1" id="Layer_1" x="0px" y="0px" viewBox="0 0 512 512" style="enable-background:new 0 0 512 512;" xml:space="preserve">
<circle style="fill:#D2C3E2;" cx="304" cy="152" r="152"/>
<circle style="fill:#F8BD9A;" cx="440" cy="424" r="64"/>
<g>
	<path style="fill:#403E3E;" d="M272,112H112V32h40.8c4-18.4,20-32,39.2-32s35.2,13.6,39.2,32H272V112z M128,96h128V48h-40v-8   c0-13.6-10.4-24-24-24s-24,10.4-24,24v8h-40V96z"/>
	<polygon style="fill:#403E3E;" points="352,480 32,480 32,64 96,64 96,80 48,80 48,464 336,464 336,80 288,80 288,64 352,64  "/>
	<polygon style="fill:#403E3E;" points="384,512 0,512 0,32 120,32 120,48 16,48 16,496 368,496 368,48 264,48 264,32 384,32  "/>
	<rect x="144" y="64" style="fill:#403E3E;" width="96" height="16"/>
	<rect x="152" y="136" style="fill:#403E3E;" width="16" height="16"/>
	<rect x="184" y="136" style="fill:#403E3E;" width="16" height="16"/>
	<rect x="216" y="136" style="fill:#403E3E;" width="16" height="16"/>
	<g transform="matrix(0.7071 0.7071 -0.7071 0.7071 199.33 298.78)">
		<rect x="-150.893" y="-19.251" style="fill:#403E3E;" width="16" height="45.6"/>
		<rect x="-165.293" y="-4.851" style="fill:#403E3E;" width="45.6" height="16"/>
	</g>
	<rect x="136" y="176" style="fill:#403E3E;" width="176" height="16"/>
	<rect x="136" y="208" style="fill:#403E3E;" width="176" height="16"/>
	<g transform="matrix(0.7071 0.7071 -0.7071 0.7071 205.69 301.42)">
		<rect x="-106.345" y="34.336" style="fill:#403E3E;" width="16" height="45.6"/>
		<rect x="-120.745" y="48.736" style="fill:#403E3E;" width="45.6" height="16"/>
	</g>
	<rect x="136" y="248" style="fill:#403E3E;" width="176" height="16"/>
	<rect x="136" y="280" style="fill:#403E3E;" width="176" height="16"/>
	<rect x="136" y="320" style="fill:#403E3E;" width="176" height="16"/>
	<rect x="136" y="352" style="fill:#403E3E;" width="176" height="16"/>
	<path style="fill:#403E3E;" d="M120,368H72v-48h48V368z M88,352h16v-16H88V352z"/>
	<rect x="136" y="392" style="fill:#403E3E;" width="176" height="16"/>
	<rect x="136" y="424" style="fill:#403E3E;" width="176" height="16"/>
	<path style="fill:#403E3E;" d="M120,440H72v-48h48V440z M88,424h16v-16H88V424z"/>
	<polygon style="fill:#403E3E;" points="480,424 464,424 464,48 432,48 432,424 416,424 416,32 480,32  "/>
	<path style="fill:#403E3E;" d="M448,512c-3.2,0-6.4-2.4-7.2-4.8l-24-64c0-0.8-0.8-1.6-0.8-3.2v-16h16v14.4l16,42.4l16-42.4V424h16   v16c0,0.8,0,1.6-0.8,3.2l-24,64C454.4,509.6,451.2,512,448,512z"/>
	<path style="fill:#403E3E;" d="M472,48h-48V0h48V48z M440,32h16V16h-16V32z"/>
	<rect x="424" y="392" style="fill:#403E3E;" width="48" height="16"/>
	<rect x="424" y="352" style="fill:#403E3E;" width="48" height="16"/>
	<path style="fill:#403E3E;" d="M512,248h-16V88c0-2.4-0.8-4-2.4-5.6S490.4,80,488,80h-64V64h64c6.4,0,12.8,2.4,16.8,7.2   S512,81.6,512,88V248z"/>
</g>
</svg>
