<?xml version="1.0" encoding="iso-8859-1"?>
<svg version="1.1" id="Capa_1" xmlns="http://www.w3.org/2000/svg" xmlns:xlink="http://www.w3.org/1999/xlink" x="0px" y="0px"
	 viewBox="0 0 512 512" style="enable-background:new 0 0 512 512;" xml:space="preserve">
<circle style="fill:#D2C3E2;" cx="332" cy="256" r="152"/>
<circle style="fill:#F8BD9A;" cx="92" cy="424" r="64"/>
<g>
	<path style="fill:#403E3E;" d="M356,112H196V32h40.808C240.52,13.768,256.688,0,276,0c19.32,0,35.48,13.768,39.192,32H356V112z
		 M212,96h128V48h-40v-8c0-13.232-10.768-24-24-24s-24,10.768-24,24v8h-40V96z"/>
	<rect x="268" y="32" style="fill:#403E3E;" width="16" height="16"/>
	<polygon style="fill:#403E3E;" points="436,480 116,480 116,64 180,64 180,80 132,80 132,464 420,464 420,80 372,80 372,64 436,64
			"/>
	<rect x="228" y="64" style="fill:#403E3E;" width="96" height="16"/>
	<polygon style="fill:#403E3E;" points="468,512 84,512 84,32 180,32 180,48 100,48 100,496 452,496 452,48 372,48 372,32 468,32
		"/>
	<path style="fill:#403E3E;" d="M356,344h-16v-48c0-8.544-3.328-16.576-9.376-22.624c-5.288-5.296-12.112-8.504-19.464-9.216
		L276,299.312l-35.16-35.16c-7.36,0.712-14.176,3.92-19.464,9.216C215.328,279.424,212,287.456,212,296v48h-16v-48
		c0-12.824,5-24.872,14.064-33.936C219.112,253,231.168,248,244,248h3.312L276,276.688L304.688,248H308
		c12.832,0,24.88,5,33.936,14.064C351.008,271.136,356,283.176,356,296V344z"/>
	<rect x="268" y="312" style="fill:#403E3E;" width="16" height="16"/>
	<path style="fill:#403E3E;" d="M276,240c-26.472,0-48-21.528-48-48s21.528-48,48-48s48,21.528,48,48S302.472,240,276,240z M276,160
		c-17.648,0-32,14.352-32,32s14.352,32,32,32s32-14.352,32-32S293.648,160,276,160z"/>
	<rect x="156" y="360" style="fill:#403E3E;" width="240" height="16"/>
	<rect x="156" y="392" style="fill:#403E3E;" width="240" height="16"/>
	<rect x="156" y="424" style="fill:#403E3E;" width="120" height="16"/>
</g>
</svg>
