<?xml version="1.0" encoding="iso-8859-1"?>
<svg version="1.1" id="Capa_1" xmlns="http://www.w3.org/2000/svg" xmlns:xlink="http://www.w3.org/1999/xlink" x="0px" y="0px"
	 viewBox="0 0 512 512" style="enable-background:new 0 0 512 512;" xml:space="preserve">
<circle style="fill:#D2C3E2;" cx="152" cy="287.848" r="152"/>
<circle style="fill:#F8BD9A;" cx="360" cy="119.848" r="64"/>
<g>
	<path style="fill:#403E3E;" d="M464,295.848h-80c-10.688,0-20.736-4.168-28.288-11.72c-7.544-7.552-11.712-17.6-11.712-28.28
		c0-10.68,4.168-20.728,11.72-28.28c7.544-7.552,17.592-11.72,28.28-11.72h80c10.688,0,20.728,4.16,28.28,11.72l0,0l0,0
		c7.552,7.56,11.72,17.6,11.72,28.28s-4.168,20.728-11.72,28.28C484.736,291.68,474.688,295.848,464,295.848z M384,231.848
		c-6.416,0-12.44,2.496-16.968,7.032S360,249.44,360,255.848c0,6.408,2.504,12.44,7.032,16.968
		c4.528,4.536,10.552,7.032,16.968,7.032h80c6.416,0,12.44-2.496,16.96-7.032c4.536-4.528,7.04-10.56,7.04-16.968
		c0-6.408-2.504-12.432-7.032-16.968l0,0c-4.528-4.536-10.552-7.032-16.968-7.032H384z"/>
	<path style="fill:#403E3E;" d="M472,359.848h-96c-10.688,0-20.736-4.168-28.288-11.72c-7.544-7.552-11.712-17.6-11.712-28.28
		s4.168-20.728,11.72-28.28c7.544-7.552,17.592-11.72,28.28-11.72h96c10.688,0,20.736,4.168,28.288,11.72
		c7.544,7.56,11.712,17.6,11.712,28.28s-4.168,20.728-11.72,28.28C492.736,355.68,482.688,359.848,472,359.848z M376,295.848
		c-6.416,0-12.44,2.496-16.96,7.032c-4.536,4.528-7.04,10.56-7.04,16.968s2.504,12.44,7.032,16.968
		c4.528,4.536,10.552,7.032,16.968,7.032h96c6.416,0,12.44-2.496,16.96-7.032c4.536-4.528,7.04-10.56,7.04-16.968
		s-2.504-12.44-7.032-16.968h-0.008c-4.52-4.536-10.544-7.032-16.96-7.032H376z"/>
	<path style="fill:#403E3E;" d="M456,423.848h-72c-10.688,0-20.736-4.168-28.288-11.72c-7.544-7.552-11.712-17.6-11.712-28.28
		s4.168-20.728,11.72-28.28c7.544-7.552,17.592-11.72,28.28-11.72h72c10.688,0,20.736,4.168,28.288,11.72
		c7.544,7.56,11.712,17.6,11.712,28.28s-4.168,20.728-11.72,28.28C476.736,419.68,466.688,423.848,456,423.848z M384,359.848
		c-6.416,0-12.44,2.496-16.96,7.032c-4.536,4.528-7.04,10.56-7.04,16.968s2.504,12.44,7.032,16.968
		c4.528,4.536,10.552,7.032,16.968,7.032h72c6.416,0,12.44-2.496,16.96-7.032c4.536-4.528,7.04-10.56,7.04-16.968
		s-2.504-12.44-7.032-16.968h-0.008c-4.52-4.536-10.544-7.032-16.96-7.032H384z"/>
	<path style="fill:#403E3E;" d="M448,487.848h-56c-10.688,0-20.736-4.168-28.288-11.72c-7.544-7.552-11.712-17.6-11.712-28.28
		s4.168-20.728,11.72-28.28c7.544-7.552,17.592-11.72,28.28-11.72h56c10.688,0,20.736,4.168,28.288,11.72
		c7.544,7.56,11.712,17.6,11.712,28.28s-4.168,20.728-11.72,28.28C468.736,483.68,458.688,487.848,448,487.848z M392,423.848
		c-6.416,0-12.44,2.496-16.96,7.032c-4.536,4.528-7.04,10.56-7.04,16.968s2.504,12.44,7.032,16.968
		c4.528,4.536,10.552,7.032,16.968,7.032h56c6.416,0,12.44-2.496,16.96-7.032c4.536-4.528,7.04-10.56,7.04-16.968
		s-2.504-12.44-7.032-16.968h-0.008c-4.52-4.536-10.544-7.032-16.96-7.032H392z"/>
	<polygon style="fill:#403E3E;" points="344,487.848 206.112,487.848 174.112,471.848 160,471.848 160,455.848 177.888,455.848
		209.888,471.848 344,471.848 	"/>
	<path style="fill:#403E3E;" d="M400,231.848h-88c-2.504,0-4.872-1.176-6.392-3.184c-1.504-2-1.992-4.6-1.304-7.016L336,110.728
		v-54.88c0-4.272-1.664-8.288-4.688-11.312c-6.048-6.048-16.576-6.048-22.624,0C305.664,47.56,304,51.576,304,55.848
		c0,1.08-0.216,2.16-0.648,3.152l-24,56c-0.36,0.84-0.864,1.616-1.496,2.296l-104,112c-1.512,1.632-3.64,2.552-5.864,2.552h-32v-16
		h28.512l100.68-108.424l22.848-53.328c0.424-7.888,3.696-15.248,9.328-20.872c12.096-12.096,33.16-12.096,45.248,0
		c6.064,6.04,9.392,14.08,9.392,22.624v56c0,0.744-0.104,1.488-0.304,2.2l-29.088,101.8H400V231.848z"/>
	<path style="fill:#403E3E;" d="M176,399.848h-16v-16h16c57.344,0,104-46.656,104-104h16C296,346.016,242.168,399.848,176,399.848z"
		/>
	<polygon style="fill:#403E3E;" points="144,487.848 0,487.848 0,471.848 128,471.848 128,231.848 0,231.848 0,215.848 144,215.848
			"/>
	<rect x="96" y="439.848" style="fill:#403E3E;" width="16" height="16"/>
	<rect x="96" y="407.848" style="fill:#403E3E;" width="16" height="16"/>
</g>
</svg>
