<svg width="11" height="20" viewBox="0 0 11 20" xmlns="http://www.w3.org/2000/svg">
  <path d="M10.27 1v2.94H8.52c-1.37 0-1.63.66-1.63 1.6v2.11h3.27l-.43 3.3H6.89v8.48H3.48v-8.47H.63v-3.3h2.85V5.21C3.48 2.4 5.2.86 7.73.86c1.2 0 2.24.09 2.54.13z" fill="#FFF" fill-rule="evenodd"/>
</svg>
